<?xml version="1.0" encoding="UTF-8" standalone="no"?>
<!-- Created with Inkscape (http://www.inkscape.org/) -->

<svg
   xmlns:dc="http://purl.org/dc/elements/1.1/"
   xmlns:cc="http://creativecommons.org/ns#"
   xmlns:rdf="http://www.w3.org/1999/02/22-rdf-syntax-ns#"
   xmlns:svg="http://www.w3.org/2000/svg"
   xmlns="http://www.w3.org/2000/svg"
   xmlns:sodipodi="http://sodipodi.sourceforge.net/DTD/sodipodi-0.dtd"
   xmlns:inkscape="http://www.inkscape.org/namespaces/inkscape"
   width="1280"
   height="720"
   viewBox="0 0 338.66666 190.50001"
   version="1.1"
   id="svg3406"
   inkscape:version="0.92.4 (5da689c313, 2019-01-14)"
   sodipodi:docname="minidebconf-curitiba-2018.svg"
   inkscape:export-filename="minidebconf-curitiba-2018.png"
   inkscape:export-xdpi="96"
   inkscape:export-ydpi="96">
  <defs
     id="defs3400">
    <inkscape:path-effect
       effect="skeletal"
       id="path-effect874"
       is_visible="true"
       pattern="M 0.04881984,0.04886061 65.255897,0.52876463 0.05547384,1.0686576 Z"
       copytype="single_stretched"
       prop_scale="3"
       scale_y_rel="false"
       spacing="0"
       normal_offset="0"
       tang_offset="0"
       prop_units="false"
       vertical_pattern="false"
       fuse_tolerance="0" />
    <inkscape:path-effect
       effect="powerstroke"
       id="path-effect860"
       is_visible="true"
       offset_points="0.2,0.18408115 | 3.5,0.18408115 | 6.8,0.18408115"
       sort_points="true"
       interpolator_type="CubicBezierFit"
       interpolator_beta="0.19266055"
       start_linecap_type="butt"
       linejoin_type="extrp_arc"
       miter_limit="4"
       end_linecap_type="butt" />
    <clipPath
       clipPathUnits="userSpaceOnUse"
       id="clipPath3332">
      <path
         inkscape:connector-curvature="0"
         id="path3334"
         d="m -471.01975,774.60179 c 0,0 29.84722,-32.65768 91.16026,-32.3407 61.31304,0.317 110.33917,39.41398 110.33917,39.41398 0,0 -72.01854,25.56843 -113.40482,22.71555 -41.38632,-2.85289 -64.59955,-10.7616 -88.09461,-29.78883 z"
         style="fill:#a80030;fill-opacity:1;stroke:none;stroke-width:0.43642581px;stroke-linecap:butt;stroke-linejoin:miter;stroke-opacity:1" />
    </clipPath>
  </defs>
  <sodipodi:namedview
     id="base"
     pagecolor="#ffffff"
     bordercolor="#666666"
     borderopacity="1.0"
     inkscape:pageopacity="1"
     inkscape:pageshadow="2"
     inkscape:zoom="1.39375"
     inkscape:cx="640"
     inkscape:cy="360"
     inkscape:document-units="mm"
     inkscape:current-layer="layer1"
     showgrid="false"
     showborder="true"
     inkscape:window-width="2558"
     inkscape:window-height="1438"
     inkscape:window-x="0"
     inkscape:window-y="0"
     inkscape:window-maximized="0"
     inkscape:snap-global="false"
     borderlayer="true"
     units="px" />
  <metadata
     id="metadata3403">
    <rdf:RDF>
      <cc:Work
         rdf:about="">
        <dc:format>image/svg+xml</dc:format>
        <dc:type
           rdf:resource="http://purl.org/dc/dcmitype/StillImage" />
        <dc:title></dc:title>
      </cc:Work>
    </rdf:RDF>
  </metadata>
  <g
     inkscape:label="Camada 1"
     inkscape:groupmode="layer"
     id="layer1"
     transform="translate(0,-106.49996)">
    <rect
       style="opacity:1;fill:#f9f9f9;fill-opacity:1;stroke:none;stroke-width:1.7436918;stroke-miterlimit:4;stroke-dasharray:none;stroke-opacity:1;paint-order:stroke markers fill"
       id="rect2017"
       width="527.59003"
       height="291.49124"
       x="-66.160835"
       y="68.610069" />
    <g
       id="g3432"
       transform="matrix(1.2134251,0,0,1.2134251,7.2673846,-26.168566)">
      <g
         id="text3030"
         style="font-style:normal;font-weight:normal;font-size:37.59127808px;line-height:1.25;font-family:sans-serif;letter-spacing:0px;word-spacing:0px;fill:#000000;fill-opacity:1;stroke:none;stroke-width:1.34478855">
        <path
           id="path3410"
           style="font-style:normal;font-variant:normal;font-weight:bold;font-stretch:normal;font-family:'Exo 2';-inkscape-font-specification:'Exo 2 Bold';fill:#000000;stroke-width:1.34478855"
           d="m 41.42422,198.28557 h 5.525918 q 2.06752,0 2.142703,2.14271 l 1.014964,23.79528 H 44.694661 L 43.830062,202.75894 H 43.19101 l -3.909493,16.05147 q -0.375913,1.84198 -2.330659,1.84198 H 33.19173 q -1.954747,0 -2.330659,-1.84198 l -3.947085,-16.05147 h -0.639051 l -0.751826,21.46462 h -5.413144 l 0.939782,-23.79528 q 0.112774,-2.14271 2.142703,-2.14271 h 5.525918 q 1.841972,0 2.255476,1.84198 l 3.157668,12.9314 q 0.30073,1.24051 0.676643,3.64635 h 0.488686 q 0.03759,-0.18796 0.263139,-1.54124 0.263139,-1.35329 0.413504,-2.10511 l 3.120077,-12.9314 q 0.451095,-1.84198 2.330659,-1.84198 z"
           inkscape:connector-curvature="0" />
        <path
           id="path3412"
           style="font-style:normal;font-variant:normal;font-weight:bold;font-stretch:normal;font-family:'Exo 2';-inkscape-font-specification:'Exo 2 Bold';fill:#000000;stroke-width:1.34478855"
           d="m 56.128282,197.49616 h 2.481025 q 1.616425,0 1.616425,1.61642 v 2.02993 q 0,1.61643 -1.616425,1.61643 h -2.481025 q -1.616425,0 -1.616425,-1.61643 v -2.02993 q 0,-1.61642 1.616425,-1.61642 z m 4.022267,26.7274 h -5.525918 v -18.5325 h 5.525918 z"
           inkscape:connector-curvature="0" />
        <path
           id="path3414"
           style="font-style:normal;font-variant:normal;font-weight:bold;font-stretch:normal;font-family:'Exo 2';-inkscape-font-specification:'Exo 2 Bold';fill:#000000;stroke-width:1.34478855"
           d="m 69.337507,205.69106 0.413504,2.74416 q 4.022267,-3.27044 7.931759,-3.27044 2.518616,0 3.834311,1.31569 1.353286,1.3157 1.353286,3.83431 v 13.90878 h -5.525918 v -12.17958 q 0,-1.24051 -0.413504,-1.69161 -0.375913,-0.48868 -1.390877,-0.48868 -1.76679,0 -5.150005,1.69161 v 12.66826 h -5.56351 v -18.5325 z"
           inkscape:connector-curvature="0" />
        <path
           id="path3416"
           style="font-style:normal;font-variant:normal;font-weight:bold;font-stretch:normal;font-family:'Exo 2';-inkscape-font-specification:'Exo 2 Bold';fill:#000000;stroke-width:1.34478855"
           d="m 89.020654,197.49616 h 2.481025 q 1.616425,0 1.616425,1.61642 v 2.02993 q 0,1.61643 -1.616425,1.61643 h -2.481025 q -1.616425,0 -1.616425,-1.61643 v -2.02993 q 0,-1.61642 1.616425,-1.61642 z m 4.022267,26.7274 h -5.525918 v -18.5325 h 5.525918 z"
           inkscape:connector-curvature="0" />
        <path
           id="path3418"
           style="font-style:normal;font-variant:normal;font-weight:bold;font-stretch:normal;font-family:'Exo 2';-inkscape-font-specification:'Exo 2 Bold';fill:#000000;stroke-width:1.34478855"
           d="m 98.057239,224.22356 v -25.93799 q 5.337961,-0.33832 10.074461,-0.33832 6.20256,0 8.6084,2.85694 2.44344,2.85694 2.44344,10.45038 0,7.59343 -2.44344,10.45037 -2.40584,2.85694 -8.6084,2.85694 -4.7365,0 -10.074461,-0.33832 z m 5.713871,-21.76535 v 17.55512 q 0.63906,0 2.06752,0.0376 1.46606,0 2.29307,0 2.89453,0 3.94709,-1.84197 1.09014,-1.84197 1.09014,-6.95438 0,-5.11242 -1.09014,-6.95439 -1.05256,-1.87956 -3.94709,-1.87956 l -4.36059,0.0376 z"
           inkscape:connector-curvature="0" />
        <path
           id="path3420"
           style="font-style:normal;font-variant:normal;font-weight:bold;font-stretch:normal;font-family:'Exo 2';-inkscape-font-specification:'Exo 2 Bold';fill:#000000;stroke-width:1.34478855"
           d="m 135.0729,216.81807 h -6.69124 q 0.26313,2.02993 1.20292,2.74417 0.97737,0.67664 3.19525,0.67664 2.96972,0 6.9168,-0.4135 l 0.52628,3.45839 q -2.89453,1.39088 -8.08213,1.39088 -5.22518,0 -7.44307,-2.25547 -2.21789,-2.25548 -2.21789,-7.44308 0,-5.45073 2.14271,-7.63103 2.18029,-2.18029 7.29271,-2.18029 4.62372,0 6.69124,1.61642 2.06752,1.57884 2.10511,4.84928 0,2.5938 -1.35328,3.90949 -1.3157,1.2781 -4.28541,1.2781 z m -6.80402,-3.34562 h 5.26278 q 1.01496,0 1.35329,-0.48869 0.37591,-0.48868 0.37591,-1.42846 0,-1.3157 -0.67664,-1.80439 -0.67665,-0.52627 -2.48103,-0.52627 -2.1427,0 -2.93212,0.8646 -0.78941,0.827 -0.90219,3.38321 z"
           inkscape:connector-curvature="0" />
        <path
           id="path3422"
           style="font-style:normal;font-variant:normal;font-weight:bold;font-stretch:normal;font-family:'Exo 2';-inkscape-font-specification:'Exo 2 Bold';fill:#000000;stroke-width:1.34478855"
           d="m 149.86683,197.90966 v 5.90183 q 0,2.5938 -0.48869,4.36059 2.93212,-3.0073 6.57848,-3.0073 3.60876,0 5.18759,2.25548 1.61643,2.21788 1.61643,7.36789 0,4.77409 -1.95475,7.33029 -1.95474,2.55621 -7.10475,2.55621 -2.25548,0 -5.07482,-0.37591 -2.78176,-0.37591 -4.36059,-1.05256 v -25.33652 z m -0.0376,13.26972 v 9.02191 q 1.91715,0.4135 3.75913,0.33832 1.91715,-0.0752 2.66898,-1.2781 0.78941,-1.20292 0.78941,-4.43577 0,-3.08249 -0.63905,-4.13504 -0.63905,-1.09015 -2.66898,-1.09015 -1.54124,0 -3.90949,1.57883 z"
           inkscape:connector-curvature="0" />
        <path
           id="path3424"
           style="font-style:normal;font-variant:normal;font-weight:bold;font-stretch:normal;font-family:'Exo 2';-inkscape-font-specification:'Exo 2 Bold';fill:#000000;stroke-width:1.34478855"
           d="m 184.78149,219.37428 0.48869,4.24782 q -3.38322,1.05255 -8.30768,1.05255 -6.0146,0 -8.45803,-3.0073 -2.44344,-3.0073 -2.44344,-10.41278 0,-7.40549 2.44344,-10.41279 2.44343,-3.0073 8.45803,-3.0073 4.36059,0 7.7814,0.8646 l -0.48869,4.2854 q -3.04489,-0.18795 -7.29271,-0.18795 -2.81934,0 -3.8719,1.80438 -1.01496,1.76679 -1.01496,6.65366 0,4.88686 1.01496,6.69124 1.05256,1.76679 3.8719,1.76679 5.22519,0 7.81899,-0.33832 z"
           inkscape:connector-curvature="0" />
        <path
           id="path3426"
           style="font-style:normal;font-variant:normal;font-weight:bold;font-stretch:normal;font-family:'Exo 2';-inkscape-font-specification:'Exo 2 Bold';fill:#000000;stroke-width:1.34478855"
           d="m 197.37222,205.16478 q 5.18759,0 7.3303,2.25548 2.18029,2.21788 2.18029,7.55584 0,5.33796 -2.18029,7.55585 -2.14271,2.18029 -7.3303,2.18029 -5.22519,0 -7.40548,-2.18029 -2.14271,-2.21789 -2.14271,-7.55585 0,-5.37555 2.14271,-7.59344 2.18029,-2.21788 7.40548,-2.21788 z m 0,4.17263 q -2.21789,0 -2.96971,1.12774 -0.75183,1.12774 -0.75183,4.51095 0,3.30803 0.75183,4.43577 0.75182,1.12774 2.96971,1.12774 2.1427,0 2.89453,-1.12774 0.78941,-1.12774 0.78941,-4.43577 0,-3.34562 -0.75182,-4.47336 -0.75183,-1.16533 -2.93212,-1.16533 z"
           inkscape:connector-curvature="0" />
        <path
           id="path3428"
           style="font-style:normal;font-variant:normal;font-weight:bold;font-stretch:normal;font-family:'Exo 2';-inkscape-font-specification:'Exo 2 Bold';fill:#000000;stroke-width:1.34478855"
           d="m 215.22397,205.69106 0.4135,2.74416 q 4.02227,-3.27044 7.93176,-3.27044 2.51862,0 3.83431,1.31569 1.35329,1.3157 1.35329,3.83431 v 13.90878 h -5.52592 v -12.17958 q 0,-1.24051 -0.41351,-1.69161 -0.37591,-0.48868 -1.39087,-0.48868 -1.76679,0 -5.15001,1.69161 v 12.66826 h -5.56351 v -18.5325 z"
           inkscape:connector-curvature="0" />
        <path
           id="path3430"
           style="font-style:normal;font-variant:normal;font-weight:bold;font-stretch:normal;font-family:'Exo 2';-inkscape-font-specification:'Exo 2 Bold';fill:#000000;stroke-width:1.34478855"
           d="m 246.48523,201.21769 h -3.49599 q -1.39088,0 -1.95475,0.52628 -0.52628,0.52628 -0.52628,1.87957 v 2.06752 h 5.11242 v 3.72153 h -5.11242 v 14.81097 h -5.6011 v -14.81097 h -3.23285 v -3.53358 l 3.23285,-0.18795 v -2.81935 q 0,-5.71387 6.08979,-5.71387 3.94709,0 6.01461,0.37591 z"
           inkscape:connector-curvature="0" />
      </g>
      <path
         sodipodi:nodetypes="cccccccccc"
         style="opacity:1;fill:#a80030;fill-opacity:1;stroke:none;stroke-width:1.96402121;stroke-miterlimit:4;stroke-dasharray:none;stroke-opacity:1;paint-order:stroke markers fill"
         id="path3139-3"
         d="m 271.44866,234.62028 c -3.45725,-0.16871 -6.91773,-0.18802 -10.37715,-0.2566 -6.31303,-0.21853 -249.825949,-0.38299 -256.1421965,-0.33325 -3.780242,0.16194 -1.95421,0.0556 -5.47859998,0.30821 l -3.77790262,-1.41636 v 0 c 3.60525962,-0.23331 1.741897,-0.13343 5.5903936,-0.29108 6.275774,-0.0419 249.7492355,0.0935 256.0227255,0.27715 3.3417,0.0514 6.68402,0.036 10.02521,0.12524 z"
         inkscape:connector-curvature="0" />
      <g
         transform="translate(3.5921025,1.9956125)"
         id="g3372">
        <path
           style="fill:#ffdd55;stroke:none;stroke-width:0.28732705px;stroke-linecap:butt;stroke-linejoin:miter;stroke-opacity:1"
           d="m 118.40009,175.94872 h 30.73601 l -7.48355,-22.85154 -22.18338,0.15759 z"
           id="path3176"
           inkscape:connector-curvature="0"
           sodipodi:nodetypes="ccccc" />
        <path
           style="fill:#a80030;fill-opacity:1;stroke:none;stroke-width:0.25226083px;stroke-linecap:butt;stroke-linejoin:miter;stroke-opacity:1"
           d="m 74.508951,139.49715 c 0,0 17.252157,-18.87665 52.692029,-18.69343 35.43988,0.18323 63.77773,22.78189 63.77773,22.78189 0,0 -41.62782,14.77895 -65.54972,13.12993 -23.92193,-1.64901 -37.339532,-6.22036 -50.920039,-17.21839 z"
           id="path3186"
           inkscape:connector-curvature="0" />
        <g
           transform="matrix(0.26458333,0,0,0.26458333,477.87761,55.881155)"
           id="g3174">
          <path
             inkscape:connector-curvature="0"
             d="m -1588.7608,459.23165 c 17.8484,-5.44735 36.5822,-6.89981 55.0539,-8.76919 41.9443,-4.31668 83.9946,-7.44009 126.0809,-9.9607 50.351,-3.54253 100.8034,-4.94809 151.2592,-5.82348 46.0582,-0.95169 92.1218,-1.5496 138.1879,-1.92296 22.4934,-0.16683 44.9871,-0.27229 67.4808,-0.37365 0,0 19.5743,3.09847 19.5743,3.09847 v 0 c -23.1419,-0.059 -46.2841,-0.0593 -69.4259,0.0548 -46.3892,0.2681 -92.7761,0.80084 -139.1567,1.75303 -50.3337,0.8376 -100.6654,2.23165 -150.8914,5.80634 -41.6102,2.49656 -83.184,5.64713 -124.6354,10.09891 -17.6251,1.86904 -35.6425,3.19211 -52.5883,8.73197 0,0 -20.9393,-2.69357 -20.9393,-2.69357 z"
             id="path3133"
             style="opacity:1;fill:#000000;fill-opacity:1;stroke:none;stroke-width:8.91590595;stroke-miterlimit:4;stroke-dasharray:none;stroke-opacity:1;paint-order:stroke markers fill" />
          <path
             inkscape:connector-curvature="0"
             d="m -1335.4663,364.42273 c -0.7203,13.0668 -0.8027,26.14577 -1.0955,39.22074 -0.933,23.86027 -1.6351,47.71458 -1.4227,71.58701 0.6913,14.28753 0.2373,7.38599 1.3158,20.70652 0,0 -6.0469,14.27869 -6.0469,14.27869 v 0 c -0.9961,-13.62618 -0.5697,-6.58355 -1.2427,-21.12905 -0.1791,-23.71946 0.399,-47.42462 1.1832,-71.13545 0.2195,-12.63007 0.1538,-25.26244 0.5346,-37.89057 0,0 6.7742,-15.63789 6.7742,-15.63789 z"
             id="path3139"
             style="opacity:1;fill:#000000;fill-opacity:1;stroke:none;stroke-width:7.8894186;stroke-miterlimit:4;stroke-dasharray:none;stroke-opacity:1;paint-order:stroke markers fill" />
          <path
             style="opacity:1;fill:#000000;fill-opacity:1;stroke:none;stroke-width:6.95619917;stroke-miterlimit:4;stroke-dasharray:none;stroke-opacity:1;paint-order:stroke markers fill"
             id="path3141"
             d="m -1273.7925,364.45664 c -0.7203,10.15835 -0.8027,20.32616 -1.0955,30.49087 -0.933,18.54938 -1.6351,37.09412 -1.4227,55.65295 0.6913,11.10737 0.2373,5.742 1.3158,16.0976 0,0 -6.0469,11.1005 -6.0469,11.1005 v 0 c -0.9961,-10.59323 -0.5697,-5.11816 -1.2427,-16.42608 -0.1791,-18.43992 0.399,-36.86871 1.1832,-55.30191 0.2195,-9.81883 0.1538,-19.63945 0.5346,-29.45677 0,0 6.7742,-12.15716 6.7742,-12.15716 z"
             inkscape:connector-curvature="0" />
          <path
             inkscape:connector-curvature="0"
             d="m -1548.995,312.53768 c 5.9274,-7.53886 13.1619,-13.90846 20.4139,-20.17833 7.7437,-6.40231 15.9339,-12.26564 24.8729,-16.96626 6.7144,-3.53085 10.2247,-4.86737 17.3041,-7.9108 22.1545,-8.70006 45.519,-13.73205 68.8991,-18.02635 25.3375,-4.6027 51.0688,-6.12188 76.772,-7.00207 16.2219,-0.46213 32.4667,-0.37931 48.6882,0.0373 10.7157,0.27523 21.4362,1.33521 32.1078,2.25986 13.0113,1.15022 26.003,2.66587 38.8704,4.90706 6.8444,1.19214 11.7879,2.28332 18.5842,3.7022 3.1153,0.75654 6.2419,1.46985 9.3459,2.26961 6.5186,1.67951 12.2419,3.29993 18.6103,5.48751 9.3202,3.20152 18.3624,7.11725 27.4201,10.95732 15.4743,6.8888 30.2886,15.07812 45.3851,22.70688 10.1258,5.1967 20.0184,10.81266 29.8239,16.5664 5.333,3.28688 10.466,6.89411 15.3778,10.76188 2.5391,2.03413 4.8436,4.31857 7.3693,6.36638 0,0 -15.1922,0 -15.1922,0 v 0 c -2.4847,-2.0373 -4.737,-4.31944 -7.2146,-6.36638 -4.765,-3.87744 -9.7628,-7.48548 -14.976,-10.76188 -9.6281,-5.78533 -19.3705,-11.39163 -29.3555,-16.5664 -14.9237,-7.66171 -29.5689,-15.87432 -44.9204,-22.70688 -9.0482,-3.85248 -18.0867,-7.76416 -27.4063,-10.95732 -6.2306,-2.1348 -12.264,-3.84642 -18.6429,-5.48751 -3.1138,-0.8011 -6.2507,-1.51307 -9.3762,-2.26961 -18.9774,-3.96321 -37.9314,-7.16416 -57.3057,-8.60926 -8.2574,-0.72006 -12.531,-1.14151 -20.8515,-1.66674 -3.6792,-0.23225 -7.3762,-0.22402 -11.0437,-0.59312 -0.627,-0.0631 2.4908,-0.31209 1.8607,-0.33107 -5.8639,-0.1767 -18.1132,0.16722 -23.9266,0.29374 -25.7314,0.87913 -51.4952,2.3796 -76.8586,7.00207 -23.2081,4.29165 -46.4135,9.28351 -68.3721,18.02635 -7.083,3.09755 -10.3019,4.33253 -17.0082,7.9108 -8.8317,4.71229 -16.9232,10.55273 -24.5433,16.96626 -7.0398,6.19447 -14.1732,12.4703 -19.5456,20.17833 0,0 -15.1663,0 -15.1663,0 z"
             id="path3161"
             style="opacity:1;fill:#000000;fill-opacity:1;stroke:none;stroke-width:1.01080942;stroke-miterlimit:4;stroke-dasharray:none;stroke-opacity:1;paint-order:stroke markers fill" />
          <path
             sodipodi:nodetypes="ccccccccccccccccccccccccccccccccccccc"
             inkscape:connector-curvature="0"
             d="m -1057.1239,293.04748 c -6.2035,5.98028 -12.8068,11.51094 -19.3916,17.02905 -8.8123,7.50152 -18.612,13.50367 -28.5445,19.2206 -13.5922,7.48625 -27.8354,13.56634 -42.0067,19.74078 -15.7248,6.65519 -31.814,12.32758 -48.0753,17.37865 -14.3832,4.25524 -28.8441,8.20252 -43.4757,11.41914 -13.4311,2.84349 -27.1337,3.56051 -40.7958,3.99919 -16.8204,0.33794 -33.6465,0.23446 -50.4691,0.20488 -11.9193,0.092 -23.8278,-0.54937 -35.7172,-1.35984 -13.3418,-0.68687 -26.4264,-3.39485 -39.3075,-6.93566 -18.1004,-4.17043 -33.7713,-9.12922 -50.459,-14.13995 -15.5065,-4.64356 -30.3974,-10.91467 -45.4619,-16.93777 -10.4921,-4.16063 -20.5984,-9.25296 -30.6889,-14.35057 -7.1855,-3.77198 -14.4561,-7.36568 -21.754,-10.89549 -3.3094,-1.59029 -6.6178,-3.18113 -9.8757,-4.88281 h 14.1518 v 0 c 3.1967,1.70644 6.4505,3.28971 9.7007,4.88281 7.1971,3.53864 14.3742,7.1233 21.4614,10.89549 9.9938,5.07988 19.9925,10.17729 30.3789,14.35057 14.8879,6.02648 29.5989,12.33011 44.9459,16.93777 16.8143,5.04462 33.1739,10.30804 50.8697,14.13995 12.9529,3.53205 26.1071,6.24086 39.5154,6.93566 11.8954,0.80716 23.8097,1.45068 35.7349,1.35984 2.0189,0.004 8.0755,-0.0146 6.0567,0.0107 -2.4503,0.0307 -4.901,0.007 -7.3514,0.006 -2.062,-8.9e-4 4.1238,-4.2e-4 6.1857,-0.006 4.0087,-0.0109 8.3842,-0.0321 12.393,-0.0923 2.0943,-0.0315 4.1884,-0.0818 6.2826,-0.12272 13.6961,-0.43764 27.4327,-1.15367 40.898,-3.99919 14.6729,-3.221 29.1819,-7.14601 43.6035,-11.41914 16.3178,-5.03309 32.4724,-10.6692 48.2307,-17.37865 14.0229,-6.16898 28.1196,-12.24263 41.549,-19.74078 9.8645,-5.74568 19.6333,-11.72295 28.3898,-19.2206 6.4164,-5.43163 12.9336,-10.8354 18.6894,-17.02905 h 14.3372 z"
             id="path3167"
             style="opacity:1;fill:#000000;fill-opacity:1;stroke:none;stroke-width:0.98216021;stroke-miterlimit:4;stroke-dasharray:none;stroke-opacity:1;paint-order:stroke markers fill" />
        </g>
        <path
           style="fill:#ffffff;fill-rule:nonzero;stroke:none;stroke-width:0.08457338;stroke-miterlimit:4;stroke-dasharray:none;stroke-opacity:1"
           d="m 132.58744,143.21816 c 0.66445,-0.93684 0.94274,-2.25774 0.45362,-3.16725 -0.4222,-0.82081 -1.12631,-1.56586 -1.90074,-1.73774 -0.98282,-0.36227 -2.28137,0.0131 -3.27956,0.70341 v 0 c -1.06828,0.76927 -1.739,2.18835 -1.64451,3.51864 l 1e-5,1e-5 c 0.12052,3.29991 3.62523,6.33247 7.01647,6.10016 2.44657,-0.11461 4.83725,-1.51009 6.34233,-3.5306 v 0 c 1.52563,-2.05012 2.2683,-4.72324 1.99266,-7.28344 -0.33654,-3.27553 -2.27826,-6.37278 -5.02125,-8.30538 -2.76323,-1.94661 -6.3102,-2.82832 -9.68345,-2.3582 v -1e-5 c -4.10846,0.56142 -7.92014,3.05916 -10.28315,6.53713 -2.37269,3.49202 -3.39195,7.92971 -2.71684,12.13101 0.6314,3.98159 2.7837,7.64651 5.77688,10.41398 -0.23568,-0.0214 -0.36792,-0.0368 -0.44634,-0.0434 -2.96374,-2.70956 -5.13133,-6.29299 -5.86713,-10.27857 -0.79351,-4.32844 0.14524,-8.95791 2.55562,-12.68592 2.40917,-3.72571 6.37531,-6.46676 10.81343,-7.19147 v 0 c 3.65756,-0.58929 7.52489,0.2667 10.6272,2.34619 3.10639,2.08239 5.344,5.4743 5.84418,9.24565 0.38214,2.9717 -0.39157,6.06461 -2.13583,8.52857 h -1e-5 c -1.75322,2.47748 -4.57,4.19978 -7.66655,4.45657 -4.56693,0.30398 -8.93042,-3.25349 -9.39838,-7.91698 v -1e-5 c -0.16227,-2.13021 0.76326,-4.24226 2.45948,-5.57436 h 1e-5 c 1.43803,-1.16102 3.42455,-1.71542 5.37323,-1.20001 1.63247,0.43277 2.89776,1.59937 3.55122,3.01771 0.88088,1.94189 0.58123,4.14638 -0.57454,5.80026 -1.29364,1.60445 -3.17878,0.0652 -2.18806,-1.52592 z"
           id="path855"
           inkscape:connector-curvature="0"
           sodipodi:nodetypes="cccccccccccccccccccccccccccccccccccc" />
      </g>
      <g
         transform="matrix(0.97721048,0,0,0.97721048,9.5719498,5.4742328)"
         id="g3366">
        <g
           id="text2011"
           style="font-style:normal;font-weight:normal;font-size:19.31701088px;line-height:1.25;font-family:sans-serif;letter-spacing:0px;word-spacing:0px;fill:#000000;fill-opacity:1;stroke:none;stroke-width:0.56029797">
          <path
             id="path3384"
             style="font-style:normal;font-variant:normal;font-weight:600;font-stretch:normal;font-family:'Exo 2';-inkscape-font-specification:'Exo 2 Semi-Bold';letter-spacing:8.23904991px;fill:#000000;stroke-width:0.56029797"
             d="m 30.928301,251.68268 0.212487,1.8158 q -1.603312,0.50225 -4.095206,0.50225 -2.994137,0 -4.211108,-1.54537 -1.216972,-1.54536 -1.216972,-5.35081 0,-3.80545 1.216972,-5.35081 1.216971,-1.54536 4.211108,-1.54536 2.221456,0 3.824768,0.42497 l -0.231804,1.83512 q -1.68058,-0.13522 -3.592964,-0.13522 -1.661263,0 -2.279407,1.0238 -0.598828,1.00449 -0.598828,3.7475 0,2.74302 0.598828,3.76682 0.618144,1.00448 2.279407,1.00448 2.45326,0 3.882719,-0.19317 z"
             inkscape:connector-curvature="0" />
          <path
             id="path3386"
             style="font-style:normal;font-variant:normal;font-weight:600;font-stretch:normal;font-family:'Exo 2';-inkscape-font-specification:'Exo 2 Semi-Bold';letter-spacing:8.23904991px;fill:#000000;stroke-width:0.56029797"
             d="m 51.571286,240.44018 v 8.11315 q 0,2.99413 -1.120386,4.23042 -1.120387,1.23629 -3.863403,1.23629 -2.858917,0 -4.037255,-1.23629 -1.15902,-1.23629 -1.15902,-4.23042 v -8.11315 h 2.414626 v 8.11315 q 0,1.91238 0.57951,2.66575 0.598828,0.73404 2.105554,0.73404 1.48741,0 2.066921,-0.73404 0.57951,-0.75337 0.57951,-2.66575 v -8.11315 z"
             inkscape:connector-curvature="0" />
          <path
             id="path3388"
             style="font-style:normal;font-variant:normal;font-weight:600;font-stretch:normal;font-family:'Exo 2';-inkscape-font-specification:'Exo 2 Semi-Bold';letter-spacing:8.23904991px;fill:#000000;stroke-width:0.56029797"
             d="m 72.673051,253.76892 h -2.569163 l -1.062435,-4.13384 q -0.367023,-1.19765 -1.545361,-1.19765 l -2.395309,-0.0193 v 5.35081 h -2.39531 V 240.4402 q 1.719214,-0.17385 4.84857,-0.17385 2.530528,0 3.573647,0.84995 1.062436,0.83063 1.062436,3.05209 0,1.54536 -0.579511,2.37599 -0.57951,0.81131 -1.912384,0.98517 v 0.0966 q 0.57951,0.13522 1.081753,0.61815 0.502242,0.48292 0.695412,1.35219 l 1.197655,4.17247 z m -7.572268,-7.32115 h 2.395309 q 1.29424,-0.0193 1.757848,-0.4636 0.482925,-0.4443 0.482925,-1.66127 0,-1.21697 -0.482925,-1.64194 -0.463608,-0.42498 -1.757848,-0.42498 h -2.395309 z"
             inkscape:connector-curvature="0" />
          <path
             id="path3390"
             style="font-style:normal;font-variant:normal;font-weight:600;font-stretch:normal;font-family:'Exo 2';-inkscape-font-specification:'Exo 2 Semi-Bold';letter-spacing:8.23904991px;fill:#000000;stroke-width:0.56029797"
             d="m 85.507738,253.76892 h -2.414627 v -13.32874 h 2.414627 z"
             inkscape:connector-curvature="0" />
          <path
             id="path3392"
             style="font-style:normal;font-variant:normal;font-weight:600;font-stretch:normal;font-family:'Exo 2';-inkscape-font-specification:'Exo 2 Semi-Bold';letter-spacing:8.23904991px;fill:#000000;stroke-width:0.56029797"
             d="m 106.26995,242.5071 h -4.11453 v 11.26182 H 99.72148 V 242.5071 h -4.07589 v -2.06692 h 10.62436 z"
             inkscape:connector-curvature="0" />
          <path
             id="path3394"
             style="font-style:normal;font-variant:normal;font-weight:600;font-stretch:normal;font-family:'Exo 2';-inkscape-font-specification:'Exo 2 Semi-Bold';letter-spacing:8.23904991px;fill:#000000;stroke-width:0.56029797"
             d="m 118.81277,253.76892 h -2.41463 v -13.32874 h 2.41463 z"
             inkscape:connector-curvature="0" />
          <path
             id="path3396"
             style="font-style:normal;font-variant:normal;font-weight:600;font-stretch:normal;font-family:'Exo 2';-inkscape-font-specification:'Exo 2 Semi-Bold';letter-spacing:8.23904991px;fill:#000000;stroke-width:0.56029797"
             d="m 137.02513,246.8148 v 0.0773 q 1.44878,0.13521 2.06692,1.0238 0.61815,0.86926 0.61815,2.53053 0,2.00896 -0.98517,2.74301 -0.98517,0.73405 -3.38048,0.73405 -3.47706,0 -5.31218,-0.15454 v -13.32874 q 1.64195,-0.15453 4.71335,-0.15453 2.56917,0 3.55433,0.73404 1.00449,0.71473 1.00449,2.74302 0,1.44878 -0.54088,2.20214 -0.54087,0.73404 -1.73853,0.84995 z m -4.61676,-0.83063 h 2.41462 q 1.23629,0 1.6999,-0.38634 0.46361,-0.40566 0.46361,-1.52605 0,-1.10107 -0.50224,-1.46809 -0.50225,-0.36702 -1.85444,-0.36702 h -2.22145 z m 0,5.96895 2.53052,0.0193 q 1.37151,0 1.85444,-0.38634 0.50224,-0.40566 0.50224,-1.584 0,-1.31355 -0.52156,-1.77716 -0.52156,-0.46361 -1.91238,-0.48293 h -2.45326 v 4.21111 z"
             inkscape:connector-curvature="0" />
          <path
             id="path3398"
             style="font-style:normal;font-variant:normal;font-weight:600;font-stretch:normal;font-family:'Exo 2';-inkscape-font-specification:'Exo 2 Semi-Bold';letter-spacing:8.23904991px;fill:#000000;stroke-width:0.56029797"
             d="m 157.54798,250.0021 h -4.94515 l -1.10107,3.76682 h -2.47258 l 3.99862,-12.69128 q 0.17386,-0.63746 0.86927,-0.63746 h 2.35668 q 0.69541,0 0.86926,0.63746 l 3.99862,12.69128 h -2.47258 z m -0.57951,-1.98965 -1.33287,-4.59745 q -0.27044,-1.04312 -0.28975,-1.1397 h -0.52156 l -0.30908,1.1397 -1.33287,4.59745 z"
             inkscape:connector-curvature="0" />
        </g>
        <g
           id="text3362"
           style="font-style:normal;font-weight:normal;font-size:18.74202347px;line-height:1.25;font-family:sans-serif;letter-spacing:0px;word-spacing:0px;fill:#a80030;fill-opacity:1;stroke:none;stroke-width:0.56029797">
          <path
             id="path3401"
             style="font-style:normal;font-variant:normal;font-weight:normal;font-stretch:normal;font-family:'Exo 2';-inkscape-font-specification:'Exo 2, ';letter-spacing:7.99380732px;fill:#a80030;fill-opacity:1;stroke-width:0.56029797"
             d="m 170.01322,242.40272 -0.11245,-1.27446 q 2.08037,-0.48729 3.93583,-0.48729 2.04288,0 2.99872,0.581 0.97458,0.56226 0.97458,2.21156 0,1.21823 -0.50603,2.24904 -0.50603,1.01207 -1.79923,2.45521 l -3.71092,4.14198 q 0.88087,-0.075 2.0991,-0.075 h 4.38564 v 1.59308 h -8.49014 v -1.03081 q 0,-0.44981 0.24364,-0.7122 l 3.74841,-4.2357 q 1.27446,-1.36817 1.83672,-2.38024 0.56226,-1.03081 0.52477,-1.93042 -0.0187,-0.88088 -0.59974,-1.14327 -0.56226,-0.26239 -1.81798,-0.26239 -1.8742,0 -3.71092,0.29988 z"
             inkscape:connector-curvature="0" />
          <path
             id="path3403"
             style="font-style:normal;font-variant:normal;font-weight:normal;font-stretch:normal;font-family:'Exo 2';-inkscape-font-specification:'Exo 2, ';letter-spacing:7.99380732px;fill:#a80030;fill-opacity:1;stroke-width:0.56029797"
             d="m 189.48652,242.17781 q 0.99333,-1.55559 3.44853,-1.55559 2.45521,0 3.44853,1.55559 1.01207,1.55559 1.01207,5.15406 0,3.59847 -1.01207,5.15406 -0.99332,1.55558 -3.44853,1.55558 -2.4552,0 -3.44853,-1.55558 -0.99333,-1.55559 -0.99333,-5.15406 0,-3.59847 0.99333,-5.15406 z m 5.66009,1.0683 q -0.61849,-1.18075 -2.21156,-1.18075 -1.59307,0 -2.21156,1.18075 -0.61848,1.18075 -0.61848,4.08576 0,2.90501 0.61848,4.08576 0.61849,1.18075 2.21156,1.18075 1.59307,0 2.21156,-1.18075 0.63723,-1.18075 0.63723,-4.08576 0,-2.90501 -0.63723,-4.08576 z"
             inkscape:connector-curvature="0" />
          <path
             id="path3405"
             style="font-style:normal;font-variant:normal;font-weight:normal;font-stretch:normal;font-family:'Exo 2';-inkscape-font-specification:'Exo 2, ';letter-spacing:7.99380732px;fill:#a80030;fill-opacity:1;stroke-width:0.56029797"
             d="m 211.95883,253.79787 h -1.6493 v -10.25189 q 0,-0.65597 0.0937,-1.12452 l -3.1674,0.99333 -0.2249,-1.21824 3.29859,-1.33068 h 1.6493 v 12.932 z"
             inkscape:connector-curvature="0" />
          <path
             id="path3407"
             style="font-style:normal;font-variant:normal;font-weight:normal;font-stretch:normal;font-family:'Exo 2';-inkscape-font-specification:'Exo 2, ';letter-spacing:7.99380732px;fill:#a80030;fill-opacity:1;stroke-width:0.56029797"
             d="m 225.48973,247.12571 v -0.075 q -1.85546,-0.20616 -1.85546,-2.96124 0,-1.83672 0.86214,-2.62388 0.88087,-0.78717 3.26111,-0.78717 2.38024,0 3.24237,0.78717 0.86213,0.76842 0.86213,2.62388 0,2.75508 -1.83672,2.96124 v 0.075 q 1.16201,0.11245 1.63056,0.97458 0.48729,0.86213 0.48729,2.47395 0,1.83672 -0.91836,2.62388 -0.89961,0.76843 -3.46727,0.78717 -2.53017,0.0187 -3.46728,-0.76843 -0.9371,-0.78716 -0.9371,-2.64262 0,-1.61182 0.4873,-2.47395 0.48729,-0.86213 1.64929,-0.97458 z m 4.3669,-4.64803 q -0.50604,-0.46855 -2.08037,-0.46855 -1.57433,0 -2.09911,0.46855 -0.52477,0.46856 -0.52477,1.76175 0,1.33069 0.50603,1.76176 0.52478,0.43106 2.13659,0.43106 1.61182,0 2.08037,-0.43106 0.48729,-0.43107 0.48729,-1.76176 0,-1.29319 -0.50603,-1.76175 z m -2.06163,5.26651 q -1.76175,0.0187 -2.32401,0.50604 -0.56226,0.48729 -0.56226,1.98665 0,1.33069 0.581,1.83672 0.58101,0.48729 2.28653,0.48729 1.66804,0 2.2303,-0.48729 0.56226,-0.48729 0.56226,-1.83672 0,-1.53684 -0.54352,-2.00539 -0.52477,-0.4873 -2.2303,-0.4873 z"
             inkscape:connector-curvature="0" />
        </g>
      </g>
    </g>
  </g>
</svg>
