<?xml version="1.0" encoding="UTF-8" standalone="no"?>
<!-- Created with Inkscape (http://www.inkscape.org/) -->

<svg
   xmlns:dc="http://purl.org/dc/elements/1.1/"
   xmlns:cc="http://creativecommons.org/ns#"
   xmlns:rdf="http://www.w3.org/1999/02/22-rdf-syntax-ns#"
   xmlns:svg="http://www.w3.org/2000/svg"
   xmlns="http://www.w3.org/2000/svg"
   xmlns:sodipodi="http://sodipodi.sourceforge.net/DTD/sodipodi-0.dtd"
   xmlns:inkscape="http://www.inkscape.org/namespaces/inkscape"
   version="1.1"
   id="svg2"
   xml:space="preserve"
   width="1280"
   height="720"
   viewBox="0 0 1280 720"
   sodipodi:docname="minidebconf-marseille-2019.svg"
   inkscape:version="0.92.4 (5da689c313, 2019-01-14)"
   inkscape:export-filename="minidebconf-marseille-2019.png"
   inkscape:export-xdpi="96"
   inkscape:export-ydpi="96"><metadata
     id="metadata8"><rdf:RDF><cc:Work
         rdf:about=""><dc:format>image/svg+xml</dc:format><dc:type
           rdf:resource="http://purl.org/dc/dcmitype/StillImage" /><dc:title></dc:title></cc:Work></rdf:RDF></metadata><defs
     id="defs6">

</defs><sodipodi:namedview
     pagecolor="#708894"
     bordercolor="#666666"
     borderopacity="1"
     objecttolerance="10"
     gridtolerance="10"
     guidetolerance="10"
     inkscape:pageopacity="1"
     inkscape:pageshadow="2"
     inkscape:window-width="1918"
     inkscape:window-height="1078"
     id="namedview4"
     showgrid="false"
     inkscape:zoom="0.90234375"
     inkscape:cx="640"
     inkscape:cy="360"
     inkscape:window-x="0"
     inkscape:window-y="1440"
     inkscape:window-maximized="0"
     inkscape:current-layer="g10" /><g
     id="g10"
     inkscape:groupmode="layer"
     inkscape:label="miniDebConfLogoCarre"
     transform="matrix(1.3333333,0,0,-1.3333333,0,720)"><g
       aria-label="Mini-DebConf"
       transform="matrix(0.87756004,0,0,-0.87324491,151.7251,-58.064304)"
       style="font-variant:normal;font-weight:bold;font-size:91.96303558px;font-family:'Amatic SC';-inkscape-font-specification:AmaticSC-Bold;writing-mode:lr-tb;fill:#ffffff;fill-opacity:1;fill-rule:nonzero;stroke:none;stroke-width:0.99753839"
       id="text40"><path
         d="m 66.366219,-100.82553 q -0.91963,0 -1.471408,-0.91963 -0.551779,-0.91963 -0.551779,-2.66693 l -0.09196,-13.61053 q -0.09196,-1.74729 -0.09196,-5.79367 -0.183926,-8.55256 -0.183926,-19.31224 v -4.69011 q -0.827667,4.41423 -2.850854,12.41501 -2.023187,8.27667 -2.850854,13.61053 v 0.55178 l -0.275889,1.74729 q -0.183926,2.02319 -0.91963,4.13834 -0.919631,2.20711 -2.850854,2.20711 -3.31067,0 -3.31067,-8.64452 0,-4.78208 -1.011593,-10.2079 -0.91963,-5.51778 -3.03478,-13.51856 l -2.758891,-10.29986 -0.183926,11.03556 q 0,4.966 0.459815,18.94439 l 0.183926,6.25348 0.183926,12.59894 q 0,1.93122 -1.379446,3.49459 -2.299076,0 -3.218706,-1.37944 -0.827667,-1.47141 -0.827667,-4.2303 l 0.183926,-7.54097 q 0.275889,-4.96601 0.275889,-7.44901 l -0.183926,-17.74886 -0.183926,-17.84083 q 0,-3.95441 0.183926,-11.86323 l 2.483002,-1.47141 q 0.735704,0.092 1.471408,1.10355 0.735705,0.91963 1.655335,3.03478 2.299076,5.70171 5.977597,22.80684 0.551779,2.39104 0.735705,3.95441 1.103556,5.33385 1.563371,8.09275 l 1.379446,7.08115 0.643741,-3.03478 1.747298,-7.54097 q 1.471408,-6.62134 2.391039,-11.58734 1.011593,-4.96601 1.931223,-10.75968 1.011594,-6.89723 1.287483,-11.49538 v -0.55178 q 0.183926,-1.19552 1.103556,-1.83926 0.919631,-0.7357 2.207113,-0.7357 0.827668,0 1.471409,0.7357 0.643741,0.73571 0.643741,1.56338 0,11.03556 0.827667,33.01473 0.459816,10.75967 0.643742,21.05953 0.183926,4.69012 0.183926,11.86323 0,2.11515 -1.103557,3.77049 -1.103556,1.65533 -2.483002,1.65533 z"
         style="stroke-width:0.99753839"
         id="path54"
         inkscape:connector-curvature="0" /><path
         d="m 86.230236,-103.30853 q -8.000784,0 -8.000784,-2.75889 0,-2.20711 2.850854,-2.20711 h 1.011593 l 0.919631,0.092 q 0.735704,0 1.011593,-0.45982 0.275889,-0.45981 0.275889,-1.65533 0,-1.56337 -0.183926,-4.87404 -0.275889,-2.20712 -0.643741,-7.90882 -0.827668,-14.07035 -0.827668,-21.24346 0,-2.57497 0.09196,-4.69012 l 0.09196,-4.69011 q 0,-3.03478 -0.27589,-5.05797 -1.471408,0.36785 -2.115149,0.36785 -2.207113,0 -2.207113,-2.20711 0,-1.10356 1.379445,-1.93123 1.379446,-0.82766 3.494596,-1.19552 3.678521,-0.7357 6.529375,-0.7357 1.103557,0 1.839261,0.82767 0.827667,0.7357 0.827667,1.7473 0,1.01159 -0.643741,1.74729 -0.551778,0.73571 -1.471409,0.73571 -0.551778,0 -0.91963,-0.092 h -0.735704 q -0.919631,0 -1.379446,0.45982 -0.367852,0.36785 -0.367852,1.47141 0,8.92041 1.103556,26.8532 0.183927,3.31067 0.735705,9.74809 0.459815,4.2303 0.459815,8.64452 v 3.4946 q 0.551778,-0.092 1.839261,-0.092 3.862447,0 3.862447,3.21871 v 0.55178 l -2.299076,1.56337 q -0.09196,0 -0.643741,0.092 -0.459815,0 -1.839261,0 -2.942817,0.18393 -3.770484,0.18393 z"
         style="stroke-width:0.99753839"
         id="path56"
         inkscape:connector-curvature="0" /><path
         d="m 127.52164,-102.94068 q -1.10356,0 -1.65534,-0.55178 -0.55177,-0.64374 -0.82766,-2.11515 l -0.55178,-1.74729 v -0.18393 -0.27589 q 0,-3.03478 -6.34545,-20.69168 -6.25349,-17.65691 -9.84005,-26.1175 v 46.2574 l 0.36786,0.64374 q 0.092,0.18393 0.36785,0.64374 0.27589,0.45982 0.27589,0.91963 0,1.19552 -0.82767,2.02319 -0.82767,0.82767 -2.02319,0.82767 -2.94281,0 -2.94281,-5.60975 l -0.092,-15.72568 q -0.092,-7.08115 -0.092,-15.81764 0,-2.94281 0.27589,-8.55256 0.27589,-5.79367 0.27589,-8.55256 0,-4.32226 3.31067,-6.80527 v 0.55178 q 0.55178,-0.18392 0.7357,-0.18392 2.11515,0 5.33386,7.35704 2.57496,5.88563 4.59815,12.41501 2.11515,6.52937 5.51778,18.57653 l 0.91963,3.31067 q 2.11515,7.44901 3.21871,10.66771 1.83926,-19.77205 1.83926,-46.71722 v -1.19552 q -0.092,-0.55178 -0.092,-1.19552 0,-2.75889 2.20711,-2.75889 1.28748,0 1.93122,1.01159 0.73571,1.0116 0.73571,2.57497 v 6.89723 q -0.18393,14.1623 -1.10356,30.71565 -0.91963,16.55335 -2.20711,18.6685 -2.66693,0.7357 -3.31067,0.7357 z"
         style="stroke-width:0.99753839"
         id="path58"
         inkscape:connector-curvature="0" /><path
         d="m 151.06417,-103.30853 q -8.00078,0 -8.00078,-2.75889 0,-2.20711 2.85085,-2.20711 h 1.0116 l 0.91963,0.092 q 0.7357,0 1.01159,-0.45982 0.27589,-0.45981 0.27589,-1.65533 0,-1.56337 -0.18393,-4.87404 -0.27588,-2.20712 -0.64374,-7.90882 -0.82766,-14.07035 -0.82766,-21.24346 0,-2.57497 0.092,-4.69012 l 0.092,-4.69011 q 0,-3.03478 -0.27589,-5.05797 -1.47141,0.36785 -2.11515,0.36785 -2.20711,0 -2.20711,-2.20711 0,-1.10356 1.37945,-1.93123 1.37944,-0.82766 3.49459,-1.19552 3.67852,-0.7357 6.52938,-0.7357 1.10355,0 1.83926,0.82767 0.82766,0.7357 0.82766,1.7473 0,1.01159 -0.64374,1.74729 -0.55177,0.73571 -1.47141,0.73571 -0.55177,0 -0.91963,-0.092 h -0.7357 q -0.91963,0 -1.37945,0.45982 -0.36785,0.36785 -0.36785,1.47141 0,8.92041 1.10356,26.8532 0.18393,3.31067 0.7357,9.74809 0.45982,4.2303 0.45982,8.64452 v 3.4946 q 0.55178,-0.092 1.83926,-0.092 3.86245,0 3.86245,3.21871 v 0.55178 l -2.29908,1.56337 q -0.092,0 -0.64374,0.092 -0.45982,0 -1.83926,0 -2.94282,0.18393 -3.77049,0.18393 z"
         style="stroke-width:0.99753839"
         id="path60"
         inkscape:connector-curvature="0" /><path
         d="m 172.03175,-132.64474 q -1.19552,0 -2.11515,-0.7357 -0.91963,-0.82767 -0.91963,-1.93123 0,-1.10355 2.20711,-1.93122 3.12674,-1.19552 10.85164,-1.65534 2.94281,-0.18392 3.77048,-0.18392 1.19552,0 2.11515,0.82767 0.91963,0.7357 0.91963,1.83926 0,1.10355 -2.20711,1.93122 -3.12674,1.19552 -10.85164,1.65533 -2.94282,0.18393 -3.77048,0.18393 z"
         style="stroke-width:0.99753839"
         id="path62"
         inkscape:connector-curvature="0" /><path
         d="m 206.51789,-103.03264 q -1.83926,0 -3.2187,-0.82767 -1.28748,-0.82767 -1.28748,-2.29908 2.02318,-2.02318 2.02318,-10.75967 0,-5.24189 -0.82766,-15.26586 -0.91964,-9.56416 -0.91964,-15.08194 l 0.18393,-5.05797 q 0.092,-2.20711 0.092,-5.05797 0,-2.57496 -0.91963,-6.52937 -1.10355,-4.13834 -1.10355,-5.79367 0,-3.21871 7.08115,-3.21871 h 1.37945 q 4.966,0 8.64452,3.03478 2.94282,2.57497 4.96601,7.44901 1.37944,3.31067 2.39103,9.1963 0.55178,5.14993 0.55178,8.09275 v 2.94281 4.32227 q -0.18392,0.36785 -0.18392,0.7357 0,0.73571 0.092,1.10356 0.092,0.36785 0.092,0.91963 0,2.94282 -0.91963,7.08115 -0.82766,4.04638 -2.483,8.27668 -4.13834,10.11593 -9.28827,14.34623 -3.03478,2.39104 -6.34545,2.39104 z m 1.93123,-5.33386 q 3.40263,-2.11515 5.9776,-6.06956 2.57496,-4.04637 3.95441,-8.92041 2.483,-9.01238 2.483,-18.20868 0,-4.96601 -0.91963,-10.85164 -1.0116,-5.70171 -4.32226,-10.29986 -1.56338,-2.20711 -3.95442,-3.40263 -2.39103,-1.28749 -5.42581,-1.28749 v 0.092 q 0,8.27667 1.10355,25.01394 1.10356,16.64531 1.10356,25.19787 z"
         style="stroke-width:0.99753839"
         id="path64"
         inkscape:connector-curvature="0" /><path
         d="m 241.00402,-102.02105 q -1.19552,0 -2.20712,-0.82767 -0.91963,-0.82766 -1.01159,-2.02318 v -2.39104 -1.83926 q -0.092,-0.82767 -0.092,-1.93123 0,-1.93122 -0.27589,-5.88563 l -0.18393,-5.88563 q 0,-4.50619 0.27589,-13.42661 0.36785,-8.00078 0.36785,-13.4266 0,-1.28748 -0.27589,-3.86245 -0.27589,-2.66693 -0.27589,-3.86245 0,-6.52937 3.86245,-6.52937 3.03478,0 6.98919,1.19552 4.04638,1.19552 4.04638,2.85085 0,0.91963 -0.82767,1.7473 -0.73571,0.7357 -1.83926,1.19552 -3.86245,-1.37945 -6.98919,-1.83926 0.092,1.37944 0.092,3.95441 0,3.67852 -0.092,6.62134 -0.27589,4.41422 -0.27589,6.62134 l 0.27589,1.4714 1.47141,-0.092 q 0.7357,-0.092 1.83926,-0.092 4.41422,0 4.41422,2.57496 0,1.0116 -0.82766,1.7473 -0.82767,0.64374 -2.11515,0.64374 -1.65534,0 -2.57497,-0.18392 h -2.29908 q 0.18393,2.39104 0.18393,6.98919 0,4.59815 -0.092,8.27667 -0.27589,5.60975 -0.27589,8.36864 0,5.14993 0.18392,5.14993 l 3.03478,-0.092 q 1.56338,-0.092 3.77049,-0.092 3.49459,0 3.49459,2.20711 0,1.28749 -1.19552,1.93123 -1.10355,0.7357 -2.75889,0.7357 z"
         style="stroke-width:0.99753839"
         id="path66"
         inkscape:connector-curvature="0" /><path
         d="m 265.55817,-102.29694 q -2.02319,0 -2.483,-1.7473 -0.36786,-1.10355 -0.36786,-3.12674 0,-3.95441 0.36786,-9.74808 0.45981,-5.51778 0.45981,-9.84005 0,-4.87404 0.27589,-14.62212 l 0.18393,-14.53016 q 0,-0.82766 -0.27589,-2.483 l -0.27589,-2.29908 v -0.45981 q 0,-2.11515 0.64374,-3.12674 0.64374,-1.0116 2.39104,-1.0116 2.39104,0 5.24189,1.37945 2.85085,1.37944 4.13834,3.49459 2.66693,4.41423 2.66693,11.03557 0,4.966 -0.82767,8.36863 -0.82767,3.31067 -2.85086,6.16153 2.48301,2.39104 3.31067,6.16152 0.91963,3.67852 0.91963,9.28827 0,5.60974 -1.93122,9.74808 -2.20711,4.69011 -6.43741,6.43741 -2.57497,0.91963 -5.14993,0.91963 z m 2.94281,-35.22184 q 4.78208,-0.092 4.78208,-11.12753 0,-11.86323 -3.77048,-12.41501 -1.0116,2.11515 -1.0116,9.93201 z m -0.55177,30.53173 q 2.94281,-0.64374 4.59815,-3.4946 1.65533,-2.85085 1.65533,-6.52937 0,-3.86245 -0.45981,-6.80527 -0.36785,-2.29907 -1.0116,-3.77048 -0.55177,-1.56337 -1.56337,-2.85086 -1.10355,-1.37944 -2.57496,-1.65533 -0.36785,5.24189 -0.36785,13.88642 0,0.55178 -0.18393,3.49459 l -0.18393,3.12675 q 0,0.18392 0.092,0.27588 v 0.18393 z"
         style="stroke-width:0.99753839"
         id="path68"
         inkscape:connector-curvature="0" /><path
         d="m 301.69962,-101.74516 q -2.57497,0 -4.78208,-1.19552 -2.11515,-1.19552 -3.67852,-3.21871 -1.37945,-1.93122 -2.483,-4.87404 -1.10356,-3.03478 -1.65534,-6.25348 -1.10355,-5.42582 -1.47141,-14.25427 -0.092,-2.11515 -0.092,-7.26508 v -5.79367 q 0.092,-2.48301 0.092,-5.14993 0,-5.42582 0.64374,-8.55257 -0.27588,-1.37944 -0.27588,-2.85085 0,-5.51778 4.13833,-8.92041 4.13834,-3.40264 10.48379,-3.40264 2.39104,0 4.41422,1.28749 2.02319,1.28748 2.02319,3.2187 0,0.91963 -0.7357,1.47141 -0.73571,0.55178 -1.83926,0.55178 -0.91964,0 -2.02319,-0.27589 -1.01159,-0.27589 -1.28748,-0.82767 h -1.19552 v -0.18392 q -3.40264,0 -5.70171,1.4714 -1.65534,1.19552 -2.57497,3.95441 -0.36785,1.0116 -0.55177,2.57497 -0.18393,1.56337 -0.18393,2.85085 -0.092,0.73571 -0.092,2.94282 l 0.18392,3.21871 0.092,3.12674 q 0,1.37945 -0.36786,3.21871 -0.45981,2.29907 -0.45981,3.2187 v 2.20712 q 0,3.58655 0.27589,9.84004 0.092,5.24189 1.19552,10.48379 0.82766,4.87404 3.12674,8.27667 2.20711,3.4946 5.9776,3.4946 1.56337,0 3.86244,-1.65534 2.48301,-1.65533 3.4946,-1.65533 1.28748,0 2.66693,1.37944 0,3.40263 -2.57497,5.24189 -2.39104,1.65534 -5.70171,2.11515 -1.83926,0.18393 -2.94281,0.18393 z"
         style="stroke-width:0.99753839"
         id="path70"
         inkscape:connector-curvature="0" /><path
         d="m 330.8519,-101.46927 q -2.39104,0 -4.41422,-1.56337 -2.02319,-1.47141 -3.31067,-4.04638 -2.66693,-5.60974 -3.31067,-12.23108 -0.82767,-6.25349 -0.82767,-12.04716 0,-1.10355 0.092,-1.83926 v -1.65533 q 0,-0.45982 -0.092,-0.45982 v -1.65533 l 0.092,-6.43741 q 0.092,-2.94282 0.73571,-9.38023 0.45981,-4.41423 2.11515,-8.55257 0.64374,-1.83926 1.65533,-2.75889 1.0116,-1.01159 2.29908,-1.01159 3.67852,0 6.62134,1.37944 2.94282,1.28749 4.966,3.67853 1.83926,2.29907 3.12675,5.7017 1.28748,3.31067 1.83926,7.08116 0.55177,3.86245 0.55177,8.18471 v 0.7357 q 0,2.85086 0.092,5.14993 l 0.092,5.2419 q 0,26.48535 -12.32305,26.48535 z m -0.36785,-3.86245 q 1.65534,0 3.03478,-1.28748 1.37945,-1.37945 2.11515,-3.67852 1.7473,-4.69012 2.11515,-10.11594 0.45982,-4.69011 0.45982,-8.09274 0,-4.13834 -0.64375,-10.85164 -0.55177,-7.08115 -0.55177,-10.57575 v -1.65533 q -0.18393,-3.4946 -2.39104,-6.06957 -2.11515,-2.57496 -5.2419,-2.57496 -3.12674,0 -4.13833,3.58656 -0.91963,2.85085 -0.91963,7.35704 0,1.7473 0.092,2.94282 v 2.483 l -0.18393,4.2303 q -0.18392,1.93122 -0.18392,4.2303 0,4.966 0.27589,9.84004 0.36785,6.89723 1.83926,13.42661 1.47141,6.80526 4.32226,6.80526 z"
         style="stroke-width:0.99753839"
         id="path72"
         inkscape:connector-curvature="0" /><path
         d="m 378.30483,-102.94068 q -1.10356,0 -1.65534,-0.55178 -0.55178,-0.64374 -0.82767,-2.11515 l -0.55177,-1.74729 v -0.18393 -0.27589 q 0,-3.03478 -6.34545,-20.69168 -6.25349,-17.65691 -9.84005,-26.1175 v 46.2574 l 0.36785,0.64374 q 0.092,0.18393 0.36786,0.64374 0.27589,0.45982 0.27589,0.91963 0,1.19552 -0.82767,2.02319 -0.82767,0.82767 -2.02319,0.82767 -2.94282,0 -2.94282,-5.60975 l -0.092,-15.72568 q -0.092,-7.08115 -0.092,-15.81764 0,-2.94281 0.27589,-8.55256 0.27589,-5.79367 0.27589,-8.55256 0,-4.32226 3.31067,-6.80527 v 0.55178 q 0.55177,-0.18392 0.7357,-0.18392 2.11515,0 5.33386,7.35704 2.57496,5.88563 4.59815,12.41501 2.11515,6.52937 5.51778,18.57653 l 0.91963,3.31067 q 2.11515,7.44901 3.21871,10.66771 1.83926,-19.77205 1.83926,-46.71722 v -1.19552 q -0.092,-0.55178 -0.092,-1.19552 0,-2.75889 2.20712,-2.75889 1.28748,0 1.93122,1.01159 0.7357,1.0116 0.7357,2.57497 v 6.89723 q -0.18392,14.1623 -1.10355,30.71565 -0.91963,16.55335 -2.20711,18.6685 -2.66693,0.7357 -3.31067,0.7357 z"
         style="stroke-width:0.99753839"
         id="path74"
         inkscape:connector-curvature="0" /><path
         d="m 399.18043,-102.3889 q -1.37944,0 -3.31067,-1.37945 0.73571,-7.63293 1.19552,-23.45057 0.45982,-16.46138 0.64375,-19.77205 v -2.20712 q 0.36785,-9.01237 0.36785,-12.50697 0,-1.28748 1.01159,-2.02319 1.10356,-0.7357 2.483,-0.7357 3.21871,0 6.89723,0.55178 2.39104,0.36785 3.77049,1.19552 1.4714,0.82767 1.4714,2.02318 0,2.57497 -4.69011,2.57497 -1.7473,-0.91963 -4.78208,-0.91963 h -1.10356 v 1.10356 q 0,3.58655 -0.36785,9.10434 -0.45981,5.14993 -0.45981,9.28826 v 2.483 h 0.7357 0.91963 q 4.50619,0 4.50619,2.39104 0,1.19552 -1.01159,1.93123 -0.91963,0.7357 -2.29908,0.7357 -2.20711,0 -3.58656,-0.45981 v 26.02554 q 0,4.04637 -2.39104,4.04637 z"
         style="stroke-width:0.99753839"
         id="path76"
         inkscape:connector-curvature="0" /></g><g
       aria-label="Marseille"
       transform="matrix(0.87756004,0,0,-0.87324491,151.7251,-58.064304)"
       style="font-variant:normal;font-size:79.99996948px;font-family:CairoFont-1;-inkscape-font-specification:CairoFont-1-0;writing-mode:lr-tb;fill:#d70751;fill-opacity:1;fill-rule:nonzero;stroke:none;stroke-width:0.99753839"
       id="text44"><path
         d="m 515.5033,-165.38551 c 0.4,-1.19999 -0.16,-2.55999 -1.2,-3.19999 -1.12,-0.64 -2.56,-0.48 -3.44,0.4 -6,5.59999 -13.03999,18.15999 -17.91999,27.67999 -2.8,5.43999 -5.2,10.63999 -7.2,15.03999 0.16,-2.48 0.32,-5.2 0.56,-8 0.4,-6.55999 0.88,-13.27999 0.72,-19.03999 -0.16,-7.36 -1.36,-11.92 -3.68,-14.47999 -1.36,-1.52 -3.12,-2.32 -5.04,-2.4 h -0.24 c -0.8,0 -1.6,0 -2.4,0.08 -3.03999,0.16 -6.31999,1.52 -9.19999,3.83999 -2.96,2.4 -5.04,5.28 -5.84,8.32 -1.28,4.32 0.24,8.4 4.16,11.12 1.28,0.96 3.04,0.64 4,-0.64 0.88,-1.28 0.56,-3.04 -0.72,-4 -1.92,-1.36 -2.56,-2.96 -2,-4.96 0.48,-1.84 1.92,-3.76 3.92,-5.36 1.92,-1.6 4.16,-2.56 5.99999,-2.72 1.04,0 1.68,0 2.08,0.08 l -0.56,2.08 c -0.64,1.52 -1.52,3.6 -2.55999,5.92 -0.4,0.72 -0.72,1.52 -1.04,2.32 -1.04,2.32 -2.48,5.68 -4.08,9.6 -3.04,7.19999 -6.8,16.15999 -10.32,23.75999 -1.92,4 -3.68,7.19999 -5.04,9.59999 -2.08,3.44 -3.04,4.08 -3.12,4.08 -1.44,0.72 -2.07999,2.4 -1.44,3.76 0.48,1.04 1.52,1.68 2.64,1.68 0.32,0 0.8,-0.08 1.12,-0.24 1.68,-0.8 3.36,-2.64 5.44,-6 1.52,-2.56 3.28,-5.84 5.36,-10.15999 3.68,-7.76 7.52,-16.96 10.56,-24.31999 1.59999,-3.84 3.03999,-7.2 3.99999,-9.44 0.4,-0.8 0.72,-1.6 1.04,-2.32 l 1.12,-2.4 c 0.08,0.96 0.16,2.08 0.16,3.28 0.16,5.6 -0.32,12.16 -0.72,18.55999 -0.8,11.52 -1.2,18.8 0.56,22.55999 0.48,1.04 1.6,1.68 2.8,1.6 1.12,-0.08 2.16,-0.88 2.48,-2 1.28,-4.23999 5.76,-14.79999 11.52,-26.15999 2.88,-5.59999 5.59999,-10.47999 8.07999,-14.63999 -7.27999,27.83999 -8.39999,40.87998 -4.55999,47.59998 0.47999,0.88 1.43999,1.44 2.39999,1.44 0.48,0 0.96,-0.16 1.44,-0.4 1.36,-0.72 1.84,-2.48 1.04,-3.84 -1.68,-2.96 -1.84,-8.63999 -0.56,-17.27999 1.36,-9.12 4.48,-21.99999 9.68,-40.39999 z"
         style="font-style:normal;font-variant:normal;font-weight:normal;font-stretch:normal;font-family:FabfeltScript;-inkscape-font-specification:FabfeltScript;stroke-width:0.99753839"
         id="path34"
         inkscape:connector-curvature="0" /><path
         d="m 510.22333,-104.66553 c -2.32,0 -4.48,-0.88 -6.08,-2.64 -1.6,-1.76 -2.4,-4.08 -2.08,-6.71999 0.4,-4.24 3.12,-8.56 5.28,-11.52 2.56,-3.36 5.76,-6.64 8.64,-8.72 4.88,-3.52 10.87999,-4.4 14.55999,-2.08 2.4,1.52 3.44,4.16 2.8,7.28 -0.24,1.36 -1.52,2.32 -2.88,2.24 0.64,0.32 1.2,0.8 1.6,1.44 0.8,1.76 0.08,3.84 -2.48,7.12 -0.32,0.48 -0.88,1.12 -1.68,2 -0.32,0.88 -0.72,1.76 -0.96,2.56 -0.4,1.59999 -0.4,2.23999 -0.32,2.47999 0.08,0.08 0.4,0.08 0.88,0.08 4,0 7.92,-3.75999 12,-11.51999 0.72,-1.44 2.48,-1.92 3.84,-1.2 1.44,0.72 1.92,2.48 1.2,3.84 -2.56,4.88 -5.2,8.39999 -7.92,10.79999 -2.8,2.56 -5.92,3.76 -9.12,3.76 -3.28,0 -4.88,-1.36 -5.68,-2.56 -0.24,-0.48 -0.48,-1.04 -0.64,-1.6 -3.27999,2.64 -6.95999,4.8 -10.55999,4.96 z m 15.43999,-27.27999 c -1.68,0 -4,0.64 -6.31999,2.32 -4.56,3.28 -11.2,11.04 -11.68,16.08 -0.08,1.43999 0.32,1.99999 0.64,2.39999 0.56,0.64 1.2,0.88 2.08,0.8 3.36,-0.16 8.48,-4.31999 12.63999,-8.95999 0.24,-0.48 0.4,-0.88 0.64,-1.36 l 0.48,-1.04 c 0.56,-1.28 1.2,-2.48 1.84,-3.28 1.04,-1.36 2.08,-2 3.28,-2 h 0.24 c -1.2,-0.48 -2,-1.84 -1.76,-3.2 0.24,-1.04 -0.08,-1.28 -0.32,-1.36 -0.4,-0.24 -0.96,-0.4 -1.76,-0.4 z"
         style="font-style:normal;font-variant:normal;font-weight:normal;font-stretch:normal;font-family:FabfeltScript;-inkscape-font-specification:FabfeltScript;stroke-width:0.99753839"
         id="path36"
         inkscape:connector-curvature="0" /><path
         d="m 549.50328,-106.02553 c -3.04,0 -4.64,-1.36 -5.44,-2.56 -0.96,-1.36 -1.28,-3.12 -0.96,-5.27999 0.24,-2 1.04,-4.4 2.48,-7.28 1.44,-2.96 2.24,-5.04 2,-6.48 -0.16,-0.8 -0.64,-2 -3.44,-3.84 -2.16,4.8 -5.76,12.56 -5.92,12.96 -0.72,1.44 -2.4,2 -3.84,1.36 -1.36,-0.64 -2,-2.4 -1.36,-3.76 0.08,-0.16 4.56,-9.76 6.56,-14.24 -0.24,-0.4 -0.48,-0.88 -0.64,-1.28 -0.56,-1.52 -0.4,-3.12 0.32,-4.47999 1.12,-2.08 3.36,-2.96 5.2,-2.08 0.72,0.32 2.32,1.36 2.16,4.15999 0,0.64 -0.16,1.28 -0.32,2 4.24,2.56 6.32,5.12 6.88,8.16 0.56,3.28 -0.88,6.64 -2.48,10 -2.48,5.04 -2,6.63999 -1.92,6.87999 0.08,0.08 0.32,0.16 1.04,0.08 h 0.16 c 4.16,-0.24 9.99999,-4.95999 13.59999,-10.87999 0.8,-1.36 2.56,-1.76 3.92,-0.96 1.36,0.8 1.76,2.56 0.96,3.84 -2.08,3.52 -4.96,6.71999 -8,9.11999 -3.43999,2.8 -6.95999,4.32 -10.15999,4.56 h -0.08 z"
         style="font-style:normal;font-variant:normal;font-weight:normal;font-stretch:normal;font-family:FabfeltScript;-inkscape-font-specification:FabfeltScript;stroke-width:0.99753839"
         id="path38"
         inkscape:connector-curvature="0" /><path
         d="m 568.46329,-104.34553 c -6.64,0 -9.04,-2.88 -10.4,-5.44 -0.72,-1.44 -0.16,-3.12 1.2,-3.83999 1.36,-0.72 3.12,-0.24 3.84,1.19999 0.56,1.04 1.28,2.4 5.36,2.4 3.28,0 4.24,-1.36 4.48,-1.76 1.2,-1.67999 1.36,-4.71999 0.64,-8.87999 -0.4,-2.32 -1.12,-4.96 -2.16,-7.84 -0.8,1.36 -1.68,2.64 -2.72,4 -2.24,2.8 -5.04,5.76 -8.64,9.04 -1.12,1.04 -2.96,0.96 -4,-0.16 -1.04,-1.12 -0.96,-2.96 0.16,-4 7.6,-6.96 10.32,-11.28 12.08,-14.88 0.32,-0.56 0.56,-1.12 0.72,-1.6 0,-0.32 -0.08,-0.64 -0.08,-0.96 -0.08,-2 0.48,-3.43999 1.52,-4.15999 1.12,-0.8 2.64,-0.8 3.68,0.16 1.44,1.2 1.36,3.27999 0.8,5.43999 0.08,0.48 0.32,1.04 0.56,1.76 4.72,11.92 5.43999,20.4 2.16,25.27999 -1.28,1.92 -4,4.24 -9.2,4.24 z"
         style="font-style:normal;font-variant:normal;font-weight:normal;font-stretch:normal;font-family:FabfeltScript;-inkscape-font-specification:FabfeltScript;stroke-width:0.99753839"
         id="path40"
         inkscape:connector-curvature="0" /><path
         d="m 591.34328,-105.14553 c -3.67999,0 -8.79999,-1.6 -11.03999,-6 -1.2,-2.31999 -1.44,-5.03999 -0.72,-8.15999 0.72,-3.12 2.48,-6.72 5.28,-10.56 3.52,-4.88 7.19999,-7.92 11.03999,-9.12 4.32,-1.27999 7.2,0.32 7.92,0.8 1.2,0.8 2.08,2 2.56,3.44 0.56,1.36 0.64,2.96 0.32,4.56 -0.8,3.84 -4.72,10.64 -21.83999,13.84 -0.08,0.96 0.08,1.84 0.48,2.56 1.04,1.99999 3.84,2.95999 5.99999,2.95999 4.4,0 12.24,-3.11999 15.84,-11.59999 0.64,-1.44 2.32,-2.16 3.76,-1.52 1.44,0.56 2.08,2.24 1.52,3.68 -2.08,4.88 -5.44,8.87999 -9.84,11.59999 -3.52,2.24 -7.68,3.52 -11.28,3.52 z m 7.84,-28.63999 c -0.48,0 -1.04,0.08 -1.68,0.24 -1.76,0.56 -4.56,2.16 -7.99999,6.96 -1.04,1.44 -1.84,2.72 -2.56,4 9.51999,-2.32 13.59999,-5.92 14.15999,-8.8 0.24,-1.12 -0.16,-1.92 -0.4,-2.08 -0.24,-0.16 -0.8,-0.32 -1.52,-0.32 z"
         style="font-style:normal;font-variant:normal;font-weight:normal;font-stretch:normal;font-family:FabfeltScript;-inkscape-font-specification:FabfeltScript;stroke-width:0.99753839"
         id="path42"
         inkscape:connector-curvature="0" /><path
         d="m 623.02332,-144.34551 c -0.56,0 -1.12,-0.16 -1.6,-0.48 -0.8,-0.56 -1.2,-1.44 -1.2,-2.32 0,-0.56 0.16,-1.12 0.48,-1.68 l 0.16,-0.16 0.24,-0.4 c 0.96,-1.28 2.72,-1.6 4,-0.72 1.28,0.88 1.6,2.64 0.72,3.92 l -0.32,0.48 -0.08,0.16 c -0.56,0.8 -1.44,1.2 -2.4,1.2 z m -8.16,37.75998 c -1.04,0 -2.56,-0.16 -4.16,-0.8 -1.68,-0.8 -3.04,-2 -3.91999,-3.68 -2.72,-5.19999 0.16,-13.75999 8.87999,-26.07999 0.88,-1.28 2.72,-1.6 4,-0.64 1.28,0.88 1.52,2.64 0.64,3.92 -10.16,14.32 -9.04,19.12 -8.48,20.24 0.64,1.19999 2.32,1.35999 3.04,1.35999 5.12,0 8.72,-5.99999 10.8,-11.03999 0.64,-1.44 2.32,-2.08 3.76,-1.44 1.44,0.56 2.08,2.24 1.52,3.68 -2.08,4.88 -4.56,8.55999 -7.36,11.03999 -2.64,2.24 -5.6,3.44 -8.72,3.44 z"
         style="font-style:normal;font-variant:normal;font-weight:normal;font-stretch:normal;font-family:FabfeltScript;-inkscape-font-specification:FabfeltScript;stroke-width:0.99753839"
         id="path44"
         inkscape:connector-curvature="0" /><path
         d="m 632.46325,-106.50553 c -1.6,0 -5.43999,-0.08 -7.83999,-3.36 -2.4,-3.36 -2.32,-8.87999 0.24,-16.79999 1.84,-5.6 4.63999,-12.56 7.83999,-19.19999 3.28,-7.04 6.72,-13.12 9.52,-17.04 1.36,-2 2.8,-3.43999 4.16,-4.31999 2.48,-1.44 4.48,-0.88 5.36,-0.4 1.44,0.64 3.12,2.31999 3.28,6.23999 0.08,2.56 -0.4,5.76 -1.6,9.12 -0.72,2.4 -3.04,8.56 -7.52,14.79999 -4.48,6.16 -9.52,10.48 -15.2,12.88 -0.16,0.08 -0.4,0.16 -0.56,0.16 -2.47999,7.76 -1.43999,10.4 -0.87999,11.19999 0.63999,0.96 1.91999,1.04 3.19999,1.04 h 0.08 c 1.28,0 3.6,-0.48 5.76,-2.07999 3.12,-2.24 4.16,-5.2 5.68,-8.24 0.64,-1.44 2.4,-2 3.76,-1.28 1.44,0.72 2,2.4 1.28,3.84 -1.68,3.36 -7.44,13.43999 -16.48,13.43999 z m 16.72,-55.67998 c -0.48,0.32 -1.28,1.04 -2.32,2.48 -4.32,6.08 -9.92,17.28 -13.92,27.43999 7.44,-5.2 12.72,-14.55999 15.12,-21.75999 1.04,-3.04 1.28,-5.12 1.28,-6.32 0,-0.88 -0.08,-1.52 -0.16,-1.84 z"
         style="font-style:normal;font-variant:normal;font-weight:normal;font-stretch:normal;font-family:FabfeltScript;-inkscape-font-specification:FabfeltScript;stroke-width:0.99753839"
         id="path46"
         inkscape:connector-curvature="0" /><path
         d="m 658.9433,-106.50553 c -1.6,0 -5.44,-0.08 -7.84,-3.36 -2.4,-3.36 -2.32,-8.87999 0.24,-16.79999 1.84,-5.6 4.64,-12.56 7.84,-19.19999 3.27999,-7.04 6.71999,-13.12 9.51999,-17.04 1.36,-2 2.8,-3.43999 4.16,-4.31999 2.48,-1.44 4.48,-0.88 5.36,-0.4 1.44,0.64 3.12,2.31999 3.28,6.23999 0.08,2.56 -0.4,5.76 -1.6,9.12 -0.72,2.4 -3.04,8.56 -7.52,14.79999 -4.48,6.16 -9.52,10.48 -15.19999,12.88 -0.16,0.08 -0.4,0.16 -0.56,0.16 -2.48,7.76 -1.44,10.4 -0.88,11.19999 0.64,0.96 1.92,1.04 3.2,1.04 h 0.08 c 1.27999,0 3.59999,-0.48 5.75999,-2.07999 3.12,-2.24 4.16,-5.2 5.68,-8.24 0.64,-1.44 2.4,-2 3.76,-1.28 1.44,0.72 2,2.4 1.28,3.84 -1.68,3.36 -7.44,13.43999 -16.47999,13.43999 z m 16.71999,-55.67998 c -0.48,0.32 -1.28,1.04 -2.32,2.48 -4.32,6.08 -9.92,17.28 -13.91999,27.43999 7.43999,-5.2 12.71999,-14.55999 15.11999,-21.75999 1.04,-3.04 1.28,-5.12 1.28,-6.32 0,-0.88 -0.08,-1.52 -0.16,-1.84 z"
         style="font-style:normal;font-variant:normal;font-weight:normal;font-stretch:normal;font-family:FabfeltScript;-inkscape-font-specification:FabfeltScript;stroke-width:0.99753839"
         id="path49"
         inkscape:connector-curvature="0" /><path
         d="m 687.50326,-105.14553 c -3.68,0 -8.8,-1.6 -11.04,-6 -1.2,-2.31999 -1.44,-5.03999 -0.72,-8.15999 0.72,-3.12 2.48,-6.72 5.28,-10.56 3.52,-4.88 7.2,-7.92 11.04,-9.12 4.31999,-1.27999 7.19999,0.32 7.91999,0.8 1.2,0.8 2.08,2 2.56,3.44 0.56,1.36 0.64,2.96 0.32,4.56 -0.8,3.84 -4.72,10.64 -21.83999,13.84 -0.08,0.96 0.08,1.84 0.48,2.56 1.04,1.99999 3.84,2.95999 6,2.95999 4.4,0 12.23999,-3.11999 15.83999,-11.59999 0.64,-1.44 2.32,-2.16 3.76,-1.52 1.44,0.56 2.08,2.24 1.52,3.68 -2.08,4.88 -5.44,8.87999 -9.84,11.59999 -3.52,2.24 -7.67999,3.52 -11.27999,3.52 z m 7.83999,-28.63999 c -0.47999,0 -1.03999,0.08 -1.67999,0.24 -1.76,0.56 -4.56,2.16 -8,6.96 -1.04,1.44 -1.84,2.72 -2.56,4 9.52,-2.32 13.59999,-5.92 14.15999,-8.8 0.24,-1.12 -0.16,-1.92 -0.4,-2.08 -0.24,-0.16 -0.8,-0.32 -1.52,-0.32 z"
         style="font-style:normal;font-variant:normal;font-weight:normal;font-stretch:normal;font-family:FabfeltScript;-inkscape-font-specification:FabfeltScript;stroke-width:0.99753839"
         id="path51"
         inkscape:connector-curvature="0" /></g><path
       inkscape:connector-curvature="0"
       id="path48"
       style="fill:#ffffff;fill-opacity:1;fill-rule:nonzero;stroke:none;stroke-width:0.87539983"
       d="m 434.58166,143.94121 c 0.56463,0.54712 1.18704,1.08724 0,1.90837 -1.7473,0.75547 -1.95214,3.86401 1.19317,3.33352 6.61364,4.96877 15.89813,0.38343 14.50275,-3.43682 l 5.57016,0.22585 c 1.7473,2.26379 0.24337,1.44967 0.37643,3.70995 0.84826,1.44353 2.38634,0.69069 3.68631,2.12022 -0.32828,2.72599 0.74496,4.02509 -1.04961,5.16048 1.16953,0.75897 1.62387,1.87336 1.21681,3.41931 l 19.77878,5.72074 0.47534,0.7152 -1.90487,0.47534 2.38372,2.38284 0.23898,1.66851 0.95068,0.71521 0.47885,6.67142 7.38662,3.09804 c -1.34111,1.95564 -0.0718,3.36153 1.66851,3.09804 0.26612,0.8789 -0.41406,1.65538 -1.13539,2.42485 0.96119,0.12606 1.72979,0.38255 1.93201,1.02247 5.54653,1.42603 6.56199,1.63087 8.97285,3.69944 3.06039,0.29063 0.75897,0.90954 1.79194,2.10359 l 1.34724,-0.014 0.0271,-1.3166 2.14385,0.47534 0.0718,5.04406 0.82813,-4.80507 12.46044,0.4482 0.15407,5.6901 c -0.003,0.84476 -0.77998,1.39539 -1.66851,1.90837 0.66618,0.31077 0.4307,0.77648 0.47534,1.18967 l 0.95331,0.23986 c -0.20134,7.66587 -0.39655,5.55966 -0.23898,8.33993 0.20484,0.95419 -0.68719,1.3166 -1.41202,2.27079 l 1.17566,0.11293 4.4838,8.60343 7.08111,0.004 c -0.12956,3.82287 1.48117,8.83891 -0.84126,11.17097 1.07411,1.95652 -0.1707,2.85906 -0.29676,4.31573 2.04756,0.68368 1.77794,2.68747 3.02626,4.56871 0.10242,0.76597 0.86839,0.0718 1.02246,0.71432 1.93551,8.05281 6.295,11.18849 11.02041,12.56024 1.09162,3.90516 0.52349,6.70206 0.7152,10.00845 h -1.19054 l 0.0692,0.60227 1.0496,0.12693 0.54712,1.41553 0.64605,-1.41553 1.20367,-0.25386 0.11293,-0.66968 -1.00846,-0.0446 c -0.62941,-3.14268 -0.40706,-8.41172 1.20718,-9.54361 10.58971,-5.40647 9.9708,-12.56023 13.86195,-18.18205 l -0.0718,24.11114 c 0.45521,2.6472 -1.88036,3.10154 -2.85818,4.62298 l 1.56959,0.89641 c -0.14006,1.35775 1.19667,2.77677 -0.84126,4.05573 l 1.50131,0.48847 c -0.39393,1.33411 -0.0245,2.77327 -1.20367,3.7721 0.82725,0.63554 2.55091,1.37438 0.64254,1.69565 -0.25999,0.7047 -0.62241,2.1955 -1.50131,2.07207 1.3061,-0.64955 2.70148,-1.18266 2.90983,0.49985 0.0753,0.5979 1.38226,-1.10475 2.192,-0.82112 0.0376,-1.42953 0.14357,-2.6262 -0.25299,-5.56317 1.7508,-0.95068 2.44849,-0.73883 3.09804,-0.47884 0.73534,0.39656 1.73067,1.25795 1.1389,1.65538 1.7578,1.67902 0.81412,2.99212 0.13656,4.56784 2.199,1.43653 0.021,2.15436 0.0718,3.3379 0.49635,1.01196 1.1529,0.29063 1.7508,0.1812 0.60578,4.09337 0.2635,6.76684 0,9.56112 l -0.68369,0.54362 c -0.21885,0.94018 -0.007,1.79545 0.33528,2.6227 1.21768,0.28363 1.90137,1.00846 2.452,1.84972 1.47329,2.70149 0.92267,3.31689 0.28012,5.28304 0.81413,0.48234 0.12344,1.22819 0.33528,2.35658 1.90487,1.14852 0.78611,7.22555 1.05311,10.58358 -1.20017,0.24599 -1.54596,2.12284 -1.28596,7.08111 0.42106,1.81645 1.51181,2.9002 1.932,4.27107 0.32215,1.81996 -0.54712,3.68631 1.79195,3.85439 1.80945,-0.85527 0.67756,-2.726 1.70965,-4.23343 2.30843,1.13539 3.85439,-0.50598 4.4733,-3.23548 -0.58827,-0.34841 -1.18705,-0.61191 -1.88474,-0.18384 -0.15057,-1.17303 0.0683,-2.51064 0.58127,-3.57338 0.17858,-0.48234 0.95768,-0.59527 -0.49548,-1.27896 0.35191,-3.67317 1.66151,-7.51618 0.28013,-10.88472 l -1.21681,0.54713 c -0.0683,-1.28947 -0.53399,-2.46513 0.11293,-3.95681 0.44733,-3.55237 0.12606,-7.05047 3.71695,-9.23547 -0.0105,-0.75634 0.0849,-1.52845 -0.64693,-2.17537 l 0.0552,-7.31396 c 0.30726,-1.66239 0.0481,-3.20046 1.26145,-5.06419 0.0657,-2.30143 0.15757,-4.59585 -0.21185,-7.0067 h 4.89699 c 0.68368,2.55091 -1.22119,4.32535 -0.15758,7.39975 l 1.00934,0.19522 c -0.11993,2.45112 2.31456,0.11905 3.95243,1.0531 0.12693,-1.78844 -0.92617,-2.48263 -2.1885,-3.2486 l 2.04844,-0.71521 c -0.17771,-0.90954 0.274,-1.4978 -0.74584,-2.25678 -0.80975,-1.25795 0.63991,-1.95564 0.11642,-3.53223 -1.28246,-2.10622 0.51299,-3.52524 1.61424,-4.22293 -1.3201,-1.34374 -3.09104,-2.56142 -2.61219,-4.55121 0.0954,-5.73474 -0.26,-13.03207 0.0306,-17.20073 1.68864,-2.32856 1.14502,-2.02042 -0.267,-4.66413 l 0.66005,-26.23135 2.52028,-0.22236 -0.0683,-3.79923 0.89553,-0.24949 0.1742,-2.14385 -0.95681,0.0516 c -0.46221,-8.16924 -0.15757,-18.4832 -0.0718,-27.10676 l 3.74409,0.0411 0.10942,-1.97665 18.48932,-0.54712 c 4.22643,1.27195 8.84329,1.55908 13.20628,2.06156 l 2.42136,0.16458 -0.18121,1.81208 1.84972,-0.0849 0.30726,-1.72366 c 8.02567,0.71783 6.63729,1.56609 9.4657,2.47913 l 5.6761,0.003 3.85438,4.24307 c 0.33178,1.22468 -0.95419,3.92266 1.68252,3.04376 l 15.95153,0.0543 c 0.0788,-12.77822 2.19551,-24.58648 8.71636,-31.46275 0.79661,2.64633 2.78377,2.46863 4.06623,0.80712 5.17362,3.16282 8.0353,2.48263 11.33555,-1.28596 1.15553,0.18121 1.65889,-0.1637 2.14386,-1.72717 3.83688,-0.70032 4.03909,-0.6119 5.15348,-4.22993 2.69798,0.5445 1.69565,-0.78611 0.0884,-4.34899 3.73446,1.07675 5.6936,1.64751 6.34403,-0.028 0.55062,-0.84038 -0.007,-3.09804 2.56054,-1.34024 1.64838,0.15758 1.68602,-1.19317 2.14473,-2.14735 22.55818,-10.31659 23.3688,-20.46947 23.18759,-23.82751 H 400.27036 c 11.14384,20.5754 10.55907,15.41929 34.3113,22.1625 z" /><g
       transform="matrix(1.2843297,0,0,-1.2843297,-602.19163,446.76865)"
       id="g4509"><g
         id="g5185"
         transform="matrix(3.1667914,0,0,-3.1667914,632.48678,279.86426)"><path
           d="m 48.684,53.547 c -1.582,-0.024 0.296,-0.817 2.363,-1.129 0.57,0.441 1.086,0.891 1.547,1.328 C 51.309,53.434 50,53.43 48.684,53.547"
           style="fill:#d70751;fill-opacity:1;fill-rule:nonzero;stroke:none"
           id="path4592"
           inkscape:connector-curvature="0" /><path
           d="m 57.164,55.664 c 0.941,1.293 1.629,2.715 1.867,4.188 -0.211,-1.043 -0.777,-1.954 -1.312,-2.907 -2.953,-1.859 -0.281,1.106 -0.004,2.231 -3.172,-4 -0.434,-2.399 -0.551,-3.512"
           style="fill:#d70751;fill-opacity:1;fill-rule:nonzero;stroke:none"
           id="path4594"
           inkscape:connector-curvature="0" /><path
           d="m 60.297,63.809 c 0.187,2.843 -0.563,1.945 -0.817,0.855 0.297,-0.148 0.532,-2.008 0.817,-0.855"
           style="fill:#d70751;fill-opacity:1;fill-rule:nonzero;stroke:none"
           id="path4596"
           inkscape:connector-curvature="0" /><path
           d="m 42.691,102.695 c 0.84,-0.144 1.825,-0.265 1.684,-0.461 0.922,0.196 1.133,0.383 -1.684,0.461"
           style="fill:#d70751;fill-opacity:1;fill-rule:nonzero;stroke:none"
           id="path4598"
           inkscape:connector-curvature="0" /><path
           d="m 44.375,102.234 -0.594,-0.125 0.555,0.051 0.039,0.074"
           style="fill:#d70751;fill-opacity:1;fill-rule:nonzero;stroke:none"
           id="path4600"
           inkscape:connector-curvature="0" /><path
           d="m 70.672,62.727 c 0.094,-2.555 -0.746,-3.793 -1.508,-5.993 l -1.363,-0.675 c -1.117,-2.176 0.113,-1.383 -0.696,-3.11 -1.742,-1.547 -5.289,-4.847 -6.425,-5.156 -0.828,0.023 0.562,0.98 0.742,1.359 -2.336,-1.601 -1.875,-2.41 -5.445,-3.386 l -0.106,0.23 c -8.809,-4.141 -21.047,4.074 -20.883,15.277 -0.097,-0.707 -0.269,-0.527 -0.465,-0.816 -0.453,5.762 2.665,11.555 7.922,13.918 5.141,2.547 11.172,1.5 14.852,-1.93 -2.02,2.649 -6.047,5.453 -10.82,5.196 -4.672,-0.071 -9.047,-3.047 -10.512,-6.274 -2.391,-1.504 -2.672,-5.808 -3.711,-6.597 -1.41,-10.325 2.637,-14.778 9.484,-20.024 1.074,-0.726 0.301,-0.836 0.446,-1.391 -2.274,1.067 -4.356,2.676 -6.071,4.641 0.91,-1.332 1.895,-2.621 3.16,-3.637 -2.144,0.727 -5.007,5.196 -5.843,5.375 3.691,-6.617 14.988,-11.601 20.91,-9.129 -2.738,-0.097 -6.219,-0.05 -9.289,1.083 -1.297,0.667 -3.055,2.042 -2.739,2.296 8.075,-3.019 16.415,-2.277 23.399,3.321 1.777,1.383 3.719,3.742 4.281,3.765 -0.844,-1.265 0.145,-0.609 -0.504,-1.73 1.77,2.859 -0.769,1.164 1.828,4.933 l 0.961,-1.324 c -0.359,2.375 2.946,5.25 2.61,9 0.758,1.145 0.847,-1.234 0.039,-3.871 1.117,2.93 0.297,3.402 0.582,5.809 0.312,-0.809 0.715,-1.672 0.926,-2.528 -0.727,2.825 0.746,4.762 1.105,6.403 -0.355,0.164 -1.117,-1.246 -1.289,2.093 0.023,1.45 0.398,0.762 0.543,1.118 -0.281,0.164 -1.027,1.277 -1.481,3.41 0.325,0.504 0.879,-1.301 1.329,-1.375 -0.289,1.699 -0.789,2.988 -0.809,4.293 -1.309,2.738 -0.465,-0.367 -1.523,1.172 -1.399,4.351 1.156,1.011 1.328,2.988 2.113,-3.059 3.316,-7.809 3.871,-9.777 -0.422,2.402 -1.102,4.718 -1.938,6.968 0.645,-0.273 -1.031,4.93 0.836,1.485 -1.996,7.347 -8.543,14.211 -14.566,17.429 0.734,-0.679 1.668,-1.519 1.336,-1.656 -2.996,1.785 -2.473,1.926 -2.903,2.68 -2.437,0.988 -2.597,-0.086 -4.211,-0.004 -4.597,2.437 -5.488,2.176 -9.722,3.711 l 0.195,-0.902 c -3.047,1.015 -3.551,-0.383 -6.844,0 -0.199,0.152 1.059,0.562 2.09,0.714 -2.945,-0.386 -2.808,0.582 -5.691,-0.113 0.711,0.504 1.461,0.832 2.222,1.258 -2.406,-0.149 -5.738,-1.402 -4.71,-0.258 -3.914,-1.754 -10.875,-4.207 -14.778,-7.867 l -0.125,0.82 C 18.91,93.797 12.895,89.531 12.418,86.746 l -0.48,-0.105 C 11.008,85.066 10.406,83.273 9.664,81.656 8.449,79.578 7.883,80.852 8.055,80.531 5.66,75.676 4.469,71.59 3.441,68.246 4.172,67.152 3.457,61.656 3.734,57.262 2.531,35.535 18.98,14.438 36.961,9.578 c 2.637,-0.949 6.551,-0.914 9.887,-1.004 -3.934,1.117 -4.442,0.59 -8.27,1.93 -2.766,1.301 -3.371,2.785 -5.328,4.488 l 0.773,-1.375 c -3.839,1.36 -2.234,1.684 -5.355,2.672 l 0.828,1.082 c -1.246,0.094 -3.293,2.094 -3.855,3.207 l -1.364,-0.055 c -1.636,2.02 -2.507,3.473 -2.441,4.602 L 21.395,24.34 c -0.497,0.851 -6.02,7.57 -3.153,6.008 -0.535,0.48 -1.242,0.789 -2.008,2.183 l 0.582,0.664 c -1.375,1.774 -2.535,4.051 -2.445,4.805 0.734,-0.996 1.242,-1.18 1.746,-1.352 -3.476,8.633 -3.672,0.481 -6.305,8.793 l 0.551,0.043 c -0.425,0.641 -0.683,1.34 -1.027,2.028 l 0.242,2.418 c -2.504,2.89 -0.695,12.312 -0.336,17.476 0.25,2.102 2.09,4.344 3.488,7.844 l -0.851,0.148 c 1.633,2.84 9.309,11.422 12.863,10.981 1.723,2.164 -0.34,0.008 -0.676,0.551 3.782,3.914 4.973,2.765 7.524,3.468 2.758,1.637 -2.36,-0.632 -1.055,0.625 4.762,1.219 3.375,2.766 9.582,3.383 0.656,-0.375 -1.519,-0.574 -2.066,-1.058 3.969,1.941 12.554,1.5 18.129,-1.075 6.468,-3.027 13.738,-11.964 14.031,-20.378 l 0.324,-0.09 c -0.164,-3.34 0.512,-7.211 -0.66,-10.754 l 0.797,1.676"
           style="fill:#d70751;fill-opacity:1;fill-rule:nonzero;stroke:none"
           id="path4602"
           inkscape:connector-curvature="0" /><path
           d="M 31.438,51.375 31.215,50.27 c 1.039,-1.415 1.863,-2.938 3.187,-4.036 -0.953,1.856 -1.664,2.621 -2.964,5.141"
           style="fill:#d70751;fill-opacity:1;fill-rule:nonzero;stroke:none"
           id="path4604"
           inkscape:connector-curvature="0" /><path
           d="m 33.891,51.473 c -0.547,0.609 -0.875,1.339 -1.239,2.07 0.348,-1.281 1.063,-2.387 1.727,-3.504 l -0.488,1.434"
           style="fill:#d70751;fill-opacity:1;fill-rule:nonzero;stroke:none"
           id="path4606"
           inkscape:connector-curvature="0" /><path
           d="m 77.336,60.918 -0.234,-0.582 c -0.422,-3.027 -1.344,-6.02 -2.754,-8.789 1.558,2.926 2.562,6.125 2.988,9.371"
           style="fill:#d70751;fill-opacity:1;fill-rule:nonzero;stroke:none"
           id="path4608"
           inkscape:connector-curvature="0" /><path
           d="m 43.004,103.457 c 1.07,0.387 2.629,0.215 3.766,0.469 -1.481,-0.121 -2.95,-0.196 -4.407,-0.383 l 0.641,-0.086"
           style="fill:#d70751;fill-opacity:1;fill-rule:nonzero;stroke:none"
           id="path4610"
           inkscape:connector-curvature="0" /><path
           d="M 5.5,83.512 C 5.742,81.234 3.785,80.348 5.934,81.852 7.086,84.449 5.48,82.566 5.5,83.512"
           style="fill:#d70751;fill-opacity:1;fill-rule:nonzero;stroke:none"
           id="path4612"
           inkscape:connector-curvature="0" /><path
           d="m 2.969,72.965 c 0.496,1.523 0.59,2.426 0.777,3.316 C 2.379,74.527 3.113,74.152 2.969,72.965"
           style="fill:#d70751;fill-opacity:1;fill-rule:nonzero;stroke:none"
           id="path4614"
           inkscape:connector-curvature="0" /></g></g></g></svg>