<?xml version="1.0" encoding="UTF-8" standalone="no"?>
<!-- Created with Inkscape (http://www.inkscape.org/) -->

<svg
   xmlns:i="http://ns.adobe.com/AdobeIllustrator/10.0/"
   xmlns:dc="http://purl.org/dc/elements/1.1/"
   xmlns:cc="http://creativecommons.org/ns#"
   xmlns:rdf="http://www.w3.org/1999/02/22-rdf-syntax-ns#"
   xmlns:svg="http://www.w3.org/2000/svg"
   xmlns="http://www.w3.org/2000/svg"
   xmlns:sodipodi="http://sodipodi.sourceforge.net/DTD/sodipodi-0.dtd"
   xmlns:inkscape="http://www.inkscape.org/namespaces/inkscape"
   width="200"
   height="200"
   id="svg4942"
   version="1.1"
   inkscape:version="0.92.4 (5da689c313, 2019-01-14)"
   sodipodi:docname="debconf15.svg"
   inkscape:export-filename="debconf15.png"
   inkscape:export-xdpi="76.800003"
   inkscape:export-ydpi="76.800003">
  <defs
     id="defs4944" />
  <sodipodi:namedview
     id="base"
     pagecolor="#000000"
     bordercolor="#666666"
     borderopacity="1.0"
     inkscape:pageopacity="1"
     inkscape:pageshadow="2"
     inkscape:zoom="1.5863234"
     inkscape:cx="477.34819"
     inkscape:cy="33.992261"
     inkscape:document-units="px"
     inkscape:current-layer="g9800"
     showgrid="false"
     showguides="true"
     inkscape:guide-bbox="true"
     inkscape:window-width="2558"
     inkscape:window-height="1438"
     inkscape:window-x="4480"
     inkscape:window-y="0"
     inkscape:window-maximized="0"
     fit-margin-top="10"
     fit-margin-left="10"
     fit-margin-right="10"
     fit-margin-bottom="10" />
  <metadata
     id="metadata4947">
    <rdf:RDF>
      <cc:Work
         rdf:about="">
        <dc:format>image/svg+xml</dc:format>
        <dc:type
           rdf:resource="http://purl.org/dc/dcmitype/StillImage" />
        <dc:title></dc:title>
      </cc:Work>
    </rdf:RDF>
  </metadata>
  <g
     inkscape:label="Camada 1"
     inkscape:groupmode="layer"
     id="layer1"
     transform="translate(-49.499506,-66.11774)">
    <g
       id="g9800"
       inkscape:export-filename="/home/valessio/Desenvolvimento/debian/dc15/artwork/logo-dc15.png"
       inkscape:export-xdpi="156.00999"
       inkscape:export-ydpi="156.00999"
       transform="translate(-2.521554)">
      <g
         id="g8724"
         transform="translate(-30.258648,7.564662)">
        <g
           id="g8687">
          <path
             style="color:#000000;display:inline;overflow:visible;visibility:visible;fill:#ee2211;fill-opacity:1;fill-rule:nonzero;stroke:none;marker:none;enable-background:accumulate"
             inkscape:connector-curvature="0"
             i:knockout="Off"
             d="m 186.76112,150.31302 c 0.13602,3.65125 -1.06544,5.42545 -2.15204,8.5628 l -1.9541,0.97186 c -1.59743,3.10415 0.15869,1.97069 -0.98535,4.43862 -2.49664,2.21705 -7.56547,6.93522 -9.18859,7.36747 -1.18637,-0.0254 0.80249,-1.39945 1.06244,-1.93594 -3.33844,2.29107 -2.6795,3.43964 -7.78612,4.83457 l -0.14812,-0.33394 c -12.58897,5.92424 -30.07751,-5.81391 -29.84779,-21.82753 -0.13309,1.01565 -0.38237,0.7618 -0.66045,1.16976 -0.64984,-8.23791 3.8054,-16.51226 11.31951,-19.89597 7.34936,-3.63613 15.96518,-2.146 21.22595,2.76415 -2.88958,-3.78728 -8.64604,-7.80284 -15.46345,-7.43104 -6.68135,0.10877 -12.93354,4.354 -15.01909,8.96497 -3.42153,2.15362 -3.82053,8.30599 -5.31067,9.43337 -2.00849,14.75006 3.77367,21.12011 13.55622,28.61768 1.53547,1.0367 0.43223,1.19533 0.63774,1.98426 -3.24925,-1.52036 -6.22345,-3.81751 -8.67174,-6.62996 1.29972,1.89964 2.70067,3.74646 4.51271,5.19732 -3.0664,-1.03528 -7.16044,-7.42497 -8.35287,-7.68488 5.28194,9.45753 21.42696,16.58628 29.88559,13.04832 -3.9142,0.14507 -8.88479,0.0805 -13.27961,-1.54452 -1.85131,-0.95053 -4.35852,-2.9167 -3.90969,-3.28397 11.54016,4.30866 23.45811,3.26137 33.44164,-4.74092 2.54198,-1.97974 5.31667,-5.34536 6.11917,-5.3907 -1.20753,1.81658 0.20705,0.87354 -0.72087,2.47696 2.52684,-4.08194 -1.10174,-1.66233 2.6145,-7.04865 l 1.37225,1.88919 c -0.51386,-3.39134 4.2089,-7.50506 3.72831,-12.86398 1.0836,-1.63831 1.20752,1.76517 0.0589,5.53422 1.5944,-4.18167 0.42163,-4.8542 0.8297,-8.30599 0.43976,1.16072 1.02464,2.39235 1.32235,3.61805 -1.03978,-4.04267 1.06244,-6.80526 1.58533,-9.15538 -0.51686,-0.22673 -1.60346,1.78636 -1.85434,-2.98634 0.0377,-2.0734 0.57882,-1.08656 0.78586,-1.59735 -0.40503,-0.23421 -1.4735,-1.82408 -2.12184,-4.87243 0.46699,-0.71774 1.25739,1.85741 1.8982,1.96165 -0.4126,-2.42258 -1.1214,-4.27081 -1.1516,-6.13118 -1.874,-3.91427 -0.66348,0.5228 -2.18081,-1.68055 -1.99486,-6.21749 1.65335,-1.44338 1.9012,-4.26643 3.01954,4.3752 4.74088,11.16083 5.53432,13.97032 -0.60452,-3.42608 -1.5793,-6.74636 -2.7717,-9.95788 0.92039,0.38846 -1.47953,-7.04709 1.19543,-2.12325 -2.85481,-10.49592 -12.20813,-20.30406 -20.81488,-24.90442 1.05034,0.96268 2.37876,2.17171 1.90424,2.36213 -4.283,-2.54647 -3.53036,-2.74748 -4.14394,-3.823591 -3.4835,-1.419079 -3.71624,0.115837 -6.02094,0 -6.5741,-3.487952 -7.84052,-3.117714 -13.89019,-5.300017 l 0.27504,1.287575 c -4.35398,-1.45087 -5.07335,0.547092 -9.77798,0 -0.28564,-0.222061 1.50827,-0.809976 2.98628,-1.023134 -4.2104,0.556131 -4.01395,-0.831164 -8.13369,0.152696 1.01404,-0.711798 2.09008,-1.184876 3.17215,-1.78932 -3.4321,0.208502 -8.19718,1.997822 -6.72671,0.368688 -5.59928,2.499708 -15.54504,6.007295 -21.12619,11.240923 l -0.17531,-1.17273 c -2.55708,3.0694 -11.15173,9.16738 -11.83634,13.14663 l -0.6846,0.15863 c -1.32842,2.25336 -2.19138,4.8059 -3.246253,7.12268 -1.739481,2.96657 -2.551044,1.1425 -2.303165,1.60795 -3.423068,6.93988 -5.126286,12.77032 -6.593724,17.55503 1.045809,1.56429 0.02566,9.4184 0.42013,15.70384 -1.716817,31.04775 21.789632,61.19018 47.484452,68.14815 3.7661,1.34958 9.36541,1.30113 14.12896,1.43419 -5.61894,-1.60808 -6.34437,-0.85094 -11.82126,-2.75962 -3.94896,-1.86193 -4.81342,-3.98518 -7.6123,-6.41384 l 1.10777,1.95714 c -5.48596,-1.94202 -3.19033,-2.40295 -7.65467,-3.8161 l 1.18336,-1.54297 c -1.77881,-0.13561 -4.71065,-2.99538 -5.51165,-4.58369 l -1.94653,0.0777 c -2.33643,-2.88054 -3.58325,-4.96156 -3.49106,-6.57403 l -0.62868,1.12132 c -0.71184,-1.2226 -8.60071,-10.81772 -4.50817,-8.58414 -0.76017,-0.69217 -1.77121,-1.12894 -2.86688,-3.12224 l 0.83269,-0.95066 c -1.96616,-2.53432 -3.62405,-5.78214 -3.49709,-6.86418 1.05034,1.41753 1.77877,1.68352 2.50118,1.92691 -4.97363,-12.33808 -5.25324,-0.6786 -9.017814,-12.55872 l 0.794934,-0.0636 c -0.60905,-0.92341 -0.982351,-1.91942 -1.472008,-2.90017 l 0.347603,-3.45335 c -3.578721,-4.13477 -1.000446,-17.59882 -0.482092,-24.98141 0.355136,-3.00146 2.987807,-6.19771 4.987227,-11.21069 l -1.21809,-0.2085 c 2.3304,-4.06231 13.30227,-16.32043 18.38623,-15.69169 2.46188,-3.092 -0.48966,-0.0141 -0.97175,-0.78893 5.40886,-5.59623 7.10908,-3.9534 10.75883,-4.96142 3.93385,-2.335 -3.37774,0.91281 -1.51281,-0.8902 6.80528,-1.73649 4.82098,-3.95044 13.69674,-4.83161 0.93702,0.53198 -2.17171,0.82213 -2.95154,1.51288 5.6673,-2.77474 17.9374,-2.14148 25.91093,1.53845 9.2445,4.32377 19.63759,17.09862 20.04865,29.11787 l 0.467,0.12572 c -0.23578,4.77864 0.73143,10.30537 -0.94759,15.38022 l 1.13497,-2.40436"
             id="path4475-6" />
          <g
             id="g8676">
            <path
               inkscape:connector-curvature="0"
               style="fill:#ee2211;stroke:none"
               d="m 227.62383,116.57027 c 0,0.65674 -0.5324,1.18913 -1.18913,1.18913 -0.65674,0 -1.18913,-0.53239 -1.18913,-1.18913 0,-0.65674 0.53239,-1.18913 1.18913,-1.18913 0.65673,0 1.18913,0.53239 1.18913,1.18913 z"
               id="circle10" />
            <path
               inkscape:connector-curvature="0"
               style="fill:#ee2211;stroke:none"
               d="m 237.13686,116.57027 c 0,0.65674 -0.53239,1.18913 -1.18913,1.18913 -0.65674,0 -1.18913,-0.53239 -1.18913,-1.18913 0,-0.65674 0.53239,-1.18913 1.18913,-1.18913 0.65674,0 1.18913,0.53239 1.18913,1.18913 z"
               id="circle12" />
            <path
               id="path24"
               style="fill:#ffdd00;stroke:none"
               d="m 176.19398,157.29795 c 1.18913,0.89184 2.37826,0 2.37826,0 l 0.89185,0.59456 v 1.18913 l -3.09176,0.89185 c -2.14041,-1.18913 -4.42948,1.21886 -3.18092,3.2701 1.21886,2.08098 3.7755,1.18913 3.95385,-0.29728 h 1.42698 l 0.89185,0.59457 v 1.18913 l -1.90263,0.89184 c -2.40799,0.59457 -2.33663,3.29984 -0.7432,4.16195 2.05125,1.18913 3.83496,-0.29728 3.53766,-2.08097 l 3.86469,-2.37826 1.4864,0.59457 c -0.95131,1.78369 0.29728,3.86466 2.40799,3.56738 2.40799,0 2.94308,-3.56738 1.1594,-4.45923 v -2.37826 c 4.16194,-1.21886 0.89186,2.19989 5.55918,1.39723 l 0.0892,-2.58636 2.82415,-0.59457 -0.14862,2.67555 2.76472,-0.50539 0.20809,-2.79445 2.79445,-0.59456 -0.20808,2.91336 2.76473,-0.50538 0.26754,-3.00255 -0.70465,-4.26976 -0.28776,-4.4701 1.91399,-1.04072 -21.10705,7.72933 -6.24292,-2.67554 c -2.08099,-3.56738 -6.86724,0.4162 -3.56739,2.97283 z m 19.97825,-39.11612 c -0.3499,1.44509 0.93942,2.18563 0.93942,2.18563 l -0.19411,1.05446 -1.09281,0.4697 -2.04085,-2.48902 c 0.24734,-2.43677 -2.86979,-3.58927 -4.2617,-1.63158 -1.43097,1.94212 0.3985,3.93938 1.83497,3.51617 l 0.56366,1.31137 -0.19412,1.05446 -1.09281,0.46971 -1.57116,-1.39622 c -1.49753,-1.97809 -3.95552,-0.84394 -4.11841,0.96097 -0.28254,2.3548 1.78802,3.40688 3.30982,2.42912 l 3.71217,2.61222 0.0407,1.60087 c -2.01499,-0.16969 -3.43423,1.79974 -2.3273,3.62205 0.95115,2.21294 4.44095,1.29559 4.55601,-0.6959 l 2.18561,-0.93942 c 2.76412,3.34339 -1.66939,1.68857 0.91185,5.66079 l 2.41209,-0.93965 1.66195,2.36057 -2.51754,0.92024 1.55649,2.34116 2.65031,-0.91257 1.65022,2.33325 -2.75959,0.95954 1.55653,2.34116 2.86501,-0.94013 9.35239,-3.0164 -15.44056,-16.34429 -0.007,-6.79409 c 2.45645,-3.32154 -3.09503,-6.14658 -4.14114,-2.10417 z"
               inkscape:connector-curvature="0" />
            <path
               id="path26"
               style="fill:#ee2211;stroke:none"
               d="m 174.61838,158.48708 c 1.45668,-2.37826 1.78368,-1.48642 2.79446,-2.37826 0.53509,-0.29728 1.4864,-1.48641 -0.38647,-2.37826 -1.72425,-0.89185 -3.86469,1.48641 -2.40799,4.75652 z m -0.29727,7.72934 c -0.38647,-1.18913 -0.68377,-2.08098 0.68374,-2.67554 1.1594,-0.59457 0.14862,-3.86468 -2.05125,-2.37826 -1.42695,0.89184 -1.54587,3.56739 1.36751,5.0538 z m 1.87287,1.78369 c -0.29727,2.08098 0.89185,3.56739 3.86466,3.2701 -0.59455,-0.59456 -1.66479,-1.78369 -1.04047,-2.97282 0.53508,-1.18913 -2.22964,-3.2701 -2.82419,-0.29728 z m 7.2834,1.48641 c 2.52691,2.08098 4.01331,1.48641 5.20244,-0.89184 0.89186,-1.7837 -2.14041,-2.67554 -2.67553,-1.48642 -0.29728,1.7837 -0.59455,1.7837 -2.52691,2.37826 z m 10.9797,-52.28295 c 2.761,0.39928 2.07056,1.05208 3.28942,1.62869 0.48455,0.37434 1.95313,0.77888 2.03295,-1.29458 0.13856,-1.93685 -2.89255,-2.9645 -5.32237,-0.33411 z m -7.2207,2.77989 c 0.94015,-0.82488 1.64232,-1.45036 2.7289,-0.42848 1.00437,0.83064 3.61035,-1.38994 1.37538,-2.82451 -1.38325,-0.95909 -3.88906,-0.0115 -4.10428,3.25299 z m -0.89942,2.42573 c -2.02986,0.54879 -2.92614,2.22873 -1.4787,4.84333 0.31157,-0.78126 0.98164,-2.2345 2.32103,-2.13048 1.30418,0.0221 2.12454,-3.34071 -0.84233,-2.71285 z m 1.51093,7.28059 c -0.91428,3.14421 0.21925,4.27537 2.87455,4.42877 1.99153,0.11505 1.61336,-3.0239 0.30918,-3.04596 -1.75662,0.43136 -1.87404,0.15816 -3.18373,-1.38281 z"
               inkscape:connector-curvature="0" />
            <path
               id="path6940-1"
               d="m 231.21111,109.40302 -5.78127,3.9375 -6.99998,-3.03125 4.46874,7.4375 v 2.59374 h 16.65624 v -2.59374 l 4.43752,-7.4375 -6.99999,3 z m -24.31251,13.09375 c -2.99568,0.0279 -2.80992,1.92861 -1.84374,3.28125 l 5.34373,6.81249 c 0.59458,0.89186 0.99381,1.18751 2.09375,1.18751 h 10.12502 v -1.34376 h -9.53127 c -0.89186,0 -1.18666,-0.39091 -1.78125,-1.31249 l -3.87499,-5.93751 c -0.59458,-0.89184 0.0127,-2.10896 2.09375,-2.40624 -1.05907,-0.22297 -1.9337,-0.28769 -2.625,-0.28125 z"
               style="fill:#ee2211;stroke:none"
               inkscape:connector-curvature="0" />
            <path
               style="color:#000000;font-style:normal;font-variant:normal;font-weight:normal;font-stretch:normal;font-size:medium;line-height:normal;font-family:Sans;-inkscape-font-specification:Sans;text-indent:0;text-align:start;text-decoration:none;text-decoration-line:none;letter-spacing:normal;word-spacing:normal;text-transform:none;writing-mode:lr-tb;direction:ltr;baseline-shift:baseline;text-anchor:start;display:inline;overflow:visible;visibility:visible;fill:#000000;fill-opacity:1;fill-rule:nonzero;stroke:none;stroke-width:0.59456468;marker:none;enable-background:accumulate"
               d="m 145.1875,61.375 c -0.95506,0.108308 -2.01639,0.625278 -2.96875,1.65625 a 0.29731207,0.29731207 0 0 0 -0.0312,0.03125 0.29731207,0.29731207 0 0 0 -0.0312,0.03125 0.29731207,0.29731207 0 0 0 -0.0312,0.1875 0.29731207,0.29731207 0 0 0 0.0625,0.125 0.29731207,0.29731207 0 0 0 0.0312,0.03125 0.29731207,0.29731207 0 0 0 0.15625,0.09375 c 0.81259,0.11751 1.2796,0.232004 1.59375,0.375 -0.015,0.0458 -0.0488,0.0776 -0.0625,0.125 -0.007,0.025 -0.0246,0.037 -0.0312,0.0625 a 0.29731207,0.29731207 0 0 0 -0.0312,0.03125 0.29731207,0.29731207 0 0 0 0,0.03125 c -0.19734,0.815 0.09,1.45977 0.40625,1.875 0.23326,0.30626 0.3774,0.38674 0.5,0.46875 l -0.125,0.75 -0.75,0.3125 -1.84375,-2.25 c 0.0522,-1.26137 -0.70043,-2.25257 -1.6875,-2.625 -0.27807,-0.105 -0.57495,-0.14691 -0.875,-0.15625 -0.009,-0.006 -0.0228,0.006 -0.0312,0 -0.39385,-0.26503 -0.83247,-0.4116 -1.3125,-0.40625 -0.49048,0.005 -1.01086,0.14652 -1.46875,0.4375 -0.91577,0.58196 -1.63753,1.73157 -1.75,3.4375 a 0.29731207,0.29731207 0 0 0 0.0312,0.125 0.29731207,0.29731207 0 0 0 0.0312,0.0625 0.29731207,0.29731207 0 0 0 0.125,0.09375 0.29731207,0.29731207 0 0 0 0.1875,0.03125 0.29731207,0.29731207 0 0 0 0.125,-0.0625 c 0.4705,-0.41281 0.85406,-0.74132 1.1875,-0.84375 0.0308,-0.0095 0.0635,0.0068 0.0937,0 0.0984,1.29755 1.27582,2.2922 2.4375,2.15625 l 0.46875,1.09375 -0.15625,0.8125 -0.78125,0.34375 -1.375,-1.21875 c -0.0202,-0.0267 -0.0419,-0.0368 -0.0625,-0.0625 -0.808,-1.00762 -1.93514,-1.28947 -2.84375,-1 -0.6342,0.20204 -1.16015,0.65917 -1.46875,1.25 -0.42827,0.31944 -0.75741,0.724109 -0.9375,1.21875 -0.33569,0.92202 -0.15563,2.08385 0.59375,3.4375 a 0.29731207,0.29731207 0 0 0 0.0312,0.03125 0.29731207,0.29731207 0 0 0 0.0625,0.0625 0.29731207,0.29731207 0 0 0 0.0937,0.03125 0.29731207,0.29731207 0 0 0 0.1875,0 0.29731207,0.29731207 0 0 0 0.0625,-0.03125 0.29731207,0.29731207 0 0 0 0.0625,-0.0625 0.29731207,0.29731207 0 0 0 0.0312,-0.0625 c 0.11812,-0.296169 0.32852,-0.676887 0.5625,-1.03125 0.0231,0.0162 0.0388,0.0472 0.0625,0.0625 0.70821,0.45822 1.6297,0.45178 2.4375,0.03125 l 3.46875,2.4375 0.0625,1.21875 c -0.8203,0.0187 -1.53921,0.32457 -2.03125,0.84375 -0.10579,-0.01754 -0.19367,-0.04982 -0.28125,-0.09375 -0.31847,-0.15976 -0.68613,-0.57 -1.34375,-1.34375 A 0.29731207,0.29731207 0 0 0 136,75.5 a 0.29731207,0.29731207 0 0 0 -0.3125,-0.0625 0.29731207,0.29731207 0 0 0 -0.15625,0.1875 c -0.46901,1.61291 -0.4233,2.78981 0.15625,3.59375 0.3903,0.541412 1.01007,0.849919 1.78125,1.03125 1.12615,2.174 4.55667,1.37122 4.9375,-0.71875 l 1.84375,-0.8125 c 0.49961,0.65234 0.77308,1.14511 0.78125,1.375 0.009,0.26033 -0.12024,0.402 -0.34375,0.65625 -0.22351,0.25425 -0.5198,0.60484 -0.53125,1.15625 -0.0114,0.55141 0.24489,1.23225 0.90625,2.25 a 0.29731207,0.29731207 0 0 0 0.0312,0.0625 0.29731207,0.29731207 0 0 0 0.0312,0.03125 0.29731207,0.29731207 0 0 0 0.0937,0.03125 0.29731207,0.29731207 0 0 0 0.1875,0 l 2.1875,-0.84375 1.3125,1.84375 -2.15625,0.78125 a 0.29731207,0.29731207 0 0 0 -0.15625,0.15625 0.29731207,0.29731207 0 0 0 0,0.21875 0.29731207,0.29731207 0 0 0 0.0312,0.0625 l 1.53125,2.34375 a 0.29731207,0.29731207 0 0 0 0.0312,0.03125 0.29731207,0.29731207 0 0 0 0.0312,0.03125 0.29731207,0.29731207 0 0 0 0.28125,0.0625 l 2.4375,-0.84375 1.3125,1.84375 -2.40625,0.8125 a 0.29731207,0.29731207 0 0 0 -0.0625,0.03125 0.29731207,0.29731207 0 0 0 -0.0312,0.03125 0.29731207,0.29731207 0 0 0 -0.0312,0.03125 0.29731207,0.29731207 0 0 0 -0.0312,0.0625 0.29731207,0.29731207 0 0 0 0.0312,0.3125 l 1.53125,2.3125 a 0.29731207,0.29731207 0 0 0 0.28125,0.15625 0.29731207,0.29731207 0 0 0 0.0625,-0.03125 l 2.875,-0.9375 9.34375,-3 a 0.29731207,0.29731207 0 0 0 0.15625,-0.125 0.29731207,0.29731207 0 0 0 0.0312,-0.09375 0.29731207,0.29731207 0 0 0 0,-0.1875 0.29731207,0.29731207 0 0 0 -0.0312,-0.0625 0.29731207,0.29731207 0 0 0 -0.031,-0.03125 L 148.59375,73 v -6.625 c 0.58094,-0.84903 0.70692,-1.71434 0.5,-2.4375 -0.21715,-0.75893 -0.7655,-1.34575 -1.4375,-1.6875 -0.0202,-0.01029 -0.0402,-0.0248 -0.0625,-0.03125 -0.004,-0.0046 -0.0273,0.0046 -0.0312,0 -0.35072,-0.410834 -0.86357,-0.713844 -1.46875,-0.8125 -0.28948,-0.04719 -0.5879,-0.06735 -0.90625,-0.03125 z m 0.15625,0.59375 c 0.23248,-0.03222 0.45036,-0.03357 0.65625,0 0.93046,0.15168 1.4955,0.78295 1.4375,1.59375 -0.0186,0.48298 -0.0998,0.7803 -0.21875,0.96875 -0.119,0.18845 -0.25312,0.27358 -0.40625,0.3125 -0.30626,0.0778 -0.73796,-0.0887 -0.90625,-0.21875 a 0.29731207,0.29731207 0 0 0 -0.0625,-0.03125 c -0.55061,-0.26048 -0.62557,-0.51506 -1,-0.84375 -0.28007,-0.24585 -1.00687,-0.4122 -1.78125,-0.59375 0.7826,-0.69903 1.58382,-1.090843 2.28125,-1.1875 z M 138.125,62.6875 c 0.37513,-0.004 0.70756,0.10974 1,0.3125 a 0.29731207,0.29731207 0 0 0 0.0312,0 c 0.5073,0.32562 0.67777,0.66913 0.71875,0.96875 0.041,0.29962 -0.0701,0.60745 -0.28125,0.875 -0.21114,0.26755 -0.52556,0.46938 -0.8125,0.5625 -0.28694,0.0931 -0.50394,0.0635 -0.65625,-0.0625 V 65.375 c -0.008,-0.007 -0.0237,0.007 -0.0312,0 -0.58115,-0.53606 -1.13876,-0.72146 -1.65625,-0.5625 -0.27265,0.0837 -0.511,0.3204 -0.75,0.5 0.23439,-1.0829 0.68335,-1.87005 1.28125,-2.25 0.36837,-0.23409 0.78112,-0.37052 1.15625,-0.375 z m 9.90625,0.5625 c 0.23072,0.23506 0.40902,0.5258 0.5,0.84375 0.16556,0.57862 0.0703,1.2601 -0.5,2.03125 A 0.29731207,0.29731207 0 0 0 148,66.3125 v 6.8125 a 0.29731207,0.29731207 0 0 0 0,0.03125 0.29731207,0.29731207 0 0 0 0.0625,0.15625 l 15.125,16 -8.90625,2.875 -2.65625,0.875 -1.1875,-1.84375 2.375,-0.8125 a 0.29731207,0.29731207 0 0 0 0.0625,-0.03125 0.29731207,0.29731207 0 0 0 0.0312,-0.03125 0.29731207,0.29731207 0 0 0 0.0312,-0.03125 0.29731207,0.29731207 0 0 0 0.0312,-0.03125 0.29731207,0.29731207 0 0 0 0,-0.34375 l -1.65625,-2.34375 a 0.29731207,0.29731207 0 0 0 -0.0312,-0.03125 0.29731207,0.29731207 0 0 0 -0.0625,-0.03125 0.29731207,0.29731207 0 0 0 -0.0937,-0.03125 0.29731207,0.29731207 0 0 0 -0.15625,0 l -2.4375,0.84375 -1.21875,-1.84375 2.15625,-0.78125 a 0.29731207,0.29731207 0 0 0 0.0625,-0.03125 0.29731207,0.29731207 0 0 0 0.0625,-0.0625 0.29731207,0.29731207 0 0 0 0.0625,-0.25 0.29731207,0.29731207 0 0 0 -0.0312,-0.09375 0.29731207,0.29731207 0 0 0 0,-0.03125 l -1.65625,-2.34375 a 0.29731207,0.29731207 0 0 0 -0.0312,-0.03125 0.29731207,0.29731207 0 0 0 -0.0312,-0.03125 0.29731207,0.29731207 0 0 0 -0.0625,-0.03125 0.29731207,0.29731207 0 0 0 -0.1875,-0.03125 0.29731207,0.29731207 0 0 0 -0.0625,0 l -2.125,0.84375 c -0.46744,-0.7826 -0.72537,-1.36886 -0.71875,-1.6875 0.007,-0.35998 0.1583,-0.566 0.375,-0.8125 0.2167,-0.2465 0.51754,-0.56865 0.5,-1.0625 -0.0175,-0.49385 -0.29178,-1.04961 -1,-1.90625 A 0.29731207,0.29731207 0 0 0 144.5939,78.125 0.29731207,0.29731207 0 0 0 144.5627,78.09375 0.29731207,0.29731207 0 0 0 144.28145,78.0625 L 142.09375,79 a 0.29731207,0.29731207 0 0 0 -0.0625,0.03125 0.29731207,0.29731207 0 0 0 -0.0312,0.03125 0.29731207,0.29731207 0 0 0 -0.0625,0.09375 0.29731207,0.29731207 0 0 0 -0.0312,0.125 c -0.0858,1.48587 -2.58033,2.3513 -3.6875,1.09375 0.156,0.01746 0.30327,0.05294 0.46875,0.0625 0.57505,0.0332 1.03163,-0.18247 1.3125,-0.53125 0.28087,-0.34878 0.3799,-0.77942 0.375,-1.21875 -0.005,-0.43933 -0.11991,-0.89758 -0.34375,-1.25 -0.22384,-0.35242 -0.58625,-0.61747 -1.03125,-0.625 0.28778,-0.09694 0.59375,-0.1852 0.9375,-0.15625 a 0.29731207,0.29731207 0 0 0 0.21875,-0.0625 0.29731207,0.29731207 0 0 0 0.0312,-0.03125 0.29731207,0.29731207 0 0 0 0.0312,-0.03125 0.29731207,0.29731207 0 0 0 0.0312,-0.0625 0.29731207,0.29731207 0 0 0 0.0312,-0.125 L 140.21875,74.75 a 0.29731207,0.29731207 0 0 0 -0.0937,-0.21875 0.29731207,0.29731207 0 0 0 -0.0312,0 l -3.6875,-2.625 a 0.29731207,0.29731207 0 0 0 -0.0937,-0.03125 0.29731207,0.29731207 0 0 0 -0.125,-0.03125 0.29731207,0.29731207 0 0 0 -0.0625,0.03125 0.29731207,0.29731207 0 0 0 -0.0625,0.03125 c -0.66852,0.42952 -1.42555,0.40303 -2,0.03125 -0.0238,-0.0154 -0.0394,-0.0459 -0.0625,-0.0625 0.29818,-0.296824 0.65632,-0.4739 1.125,-0.4375 a 0.29731207,0.29731207 0 0 0 0.0312,0 c 0.45427,0.008 0.8107,-0.26917 1.0625,-0.625 0.2518,-0.35583 0.40788,-0.80058 0.40625,-1.25 -0.002,-0.44942 -0.18453,-0.89762 -0.59375,-1.1875 -0.36368,-0.257622 -0.86907,-0.347453 -1.53125,-0.25 0.022,-0.008 0.0402,-0.02425 0.0625,-0.03125 0.71235,-0.22694 1.53373,-0.0611 2.21875,0.84375 a 0.29731207,0.29731207 0 0 0 0.0625,0.03125 l 1.5625,1.40625 a 0.29731207,0.29731207 0 0 0 0.0312,0.03125 0.29731207,0.29731207 0 0 0 0.28125,0.03125 l 1.09375,-0.46875 a 0.29731207,0.29731207 0 0 0 0.0625,-0.03125 0.29731207,0.29731207 0 0 0 0.0312,-0.03125 0.29731207,0.29731207 0 0 0 0.0312,-0.03125 0.29731207,0.29731207 0 0 0 0.0312,-0.0625 A 0.29731207,0.29731207 0 0 0 140,69.75 l 0.1875,-1.0625 A 0.29731207,0.29731207 0 0 0 140.15625,68.5 l -0.5625,-1.3125 a 0.29731207,0.29731207 0 0 0 -0.21875,-0.15625 0.29731207,0.29731207 0 0 0 -0.125,0 c -0.78349,0.23083 -1.82991,-0.48042 -1.96875,-1.53125 0.12856,0.07158 0.27322,0.157993 0.4375,0.3125 a 0.29731207,0.29731207 0 0 0 0.0312,0 c 0.34987,0.28936 0.80444,0.2907 1.21875,0.15625 0.41431,-0.13445 0.80722,-0.38692 1.09375,-0.75 0.28653,-0.36308 0.47385,-0.84949 0.40625,-1.34375 -0.0259,-0.189036 -0.11157,-0.382663 -0.21875,-0.5625 0.74897,0.33607 1.32327,1.06395 1.21875,2.09375 a 0.29731207,0.29731207 0 0 0 0.0625,0.21875 l 2.03125,2.5 a 0.29731207,0.29731207 0 0 0 0.0312,0.03125 0.29731207,0.29731207 0 0 0 0.0625,0.03125 0.29731207,0.29731207 0 0 0 0.15625,0.03125 0.29731207,0.29731207 0 0 0 0.0937,-0.03125 L 145,67.71875 a 0.29731207,0.29731207 0 0 0 0.0625,-0.03125 0.29731207,0.29731207 0 0 0 0.0312,-0.03125 0.29731207,0.29731207 0 0 0 0.0312,-0.03125 0.29731207,0.29731207 0 0 0 0.0312,-0.0625 0.29731207,0.29731207 0 0 0 0.0312,-0.0625 l 0.1875,-1.0625 a 0.29731207,0.29731207 0 0 0 -0.0312,-0.1875 0.29731207,0.29731207 0 0 0 -0.0312,-0.03125 0.29731207,0.29731207 0 0 0 -0.0312,-0.03125 0.29731207,0.29731207 0 0 0 -0.0312,-0.03125 0.29731207,0.29731207 0 0 0 -0.0312,0 c 0,0 -0.25908,-0.18369 -0.5,-0.5 -0.24092,-0.31631 -0.43381,-0.74491 -0.28125,-1.375 0.004,-0.01476 0.0239,-0.0197 0.0312,-0.03125 0.25094,0.229381 0.4895,0.549837 1.0625,0.84375 0.0105,0.005 0.0205,-0.005 0.0312,0 0.008,0.006 0.0228,0.02515 0.0312,0.03125 0.32078,0.23057 0.83208,0.4505 1.375,0.3125 0.28456,-0.0723 0.55604,-0.28659 0.75,-0.59375 0.19396,-0.30716 0.29118,-0.69625 0.3125,-1.25 0.009,-0.119101 0.0118,-0.230827 0,-0.34375 z m -13.1875,5.40625 c 0.41237,-0.02373 0.67077,0.06495 0.84375,0.1875 0.23064,0.16337 0.34263,0.40872 0.34375,0.71875 0.001,0.31003 -0.10515,0.65739 -0.28125,0.90625 -0.1761,0.24886 -0.39593,0.37835 -0.59375,0.375 -0.78006,-0.0606 -1.37046,0.35157 -1.78125,0.84375 -0.24923,0.29861 -0.35266,0.60122 -0.5,0.90625 -0.42881,-0.98049 -0.55995,-1.81242 -0.34375,-2.40625 0.25806,-0.7088 0.89196,-1.21142 1.84375,-1.46875 0.17296,-0.0366 0.33129,-0.05459 0.46875,-0.0625 z m 1.1875,7.6875 c 0.36724,0.42928 0.7035,0.88241 1.0625,1.0625 0.49073,0.24617 1.06079,0.20258 1.90625,0 0.20709,0.004 0.37962,0.10501 0.53125,0.34375 0.15163,0.23874 0.24628,0.60371 0.25,0.9375 0.004,0.33379 -0.0824,0.63565 -0.25,0.84375 -0.16758,0.2081 -0.39178,0.3368 -0.8125,0.3125 -1.28808,-0.0744 -2.14003,-0.3827 -2.5625,-0.96875 -0.36291,-0.50342 -0.38396,-1.35051 -0.125,-2.53125 z M 155,95 a 0.29731207,0.29731207 0 0 0 -0.0312,0.03125 h -0.0312 l -0.0625,0.03125 -20.875,7.65625 -6.09375,-2.59375 c -0.55091,-0.87315 -1.28343,-1.37307 -2.03125,-1.46875 -0.7828,-0.10016 -1.54581,0.17394 -2.125,0.65625 -0.0223,0.0186 -0.0408,0.0433 -0.0625,0.0625 -0.0317,0.0095 -0.0624,0.02031 -0.0937,0.03125 -0.4919,0.17163 -0.93475,0.50549 -1.25,1 -0.6305,0.98901 -0.79257,2.50979 -0.0312,4.21875 a 0.29731207,0.29731207 0 0 0 0.1875,0.1875 0.29731207,0.29731207 0 0 0 0.28125,-0.0625 0.29731207,0.29731207 0 0 0 0.0312,-0.0312 0.29731207,0.29731207 0 0 0 0.0312,-0.0312 c 0.39476,-0.64451 0.6955,-1.03486 0.9375,-1.28125 0.063,0.0554 0.11808,0.10246 0.1875,0.15625 0.67067,0.503 1.40001,0.50156 1.90625,0.375 0.37577,-0.0939 0.50256,-0.20161 0.625,-0.28125 l 0.625,0.40625 v 0.8125 l -2.84375,0.84375 c -0.0102,-0.005 -0.0212,0.004 -0.0312,0 -1.11013,-0.48569 -2.25649,-0.23936 -2.96875,0.5 -0.19138,0.19866 -0.34356,0.43745 -0.46875,0.6875 -0.0207,0.0133 -0.0417,0.0172 -0.0625,0.0312 -0.82363,0.51477 -1.23549,1.52288 -1.0625,2.59375 0.17299,1.07087 0.94628,2.19198 2.46875,2.96875 a 0.29731207,0.29731207 0 0 0 0.15625,0.0312 0.29731207,0.29731207 0 0 0 0.25,-0.375 c -0.19341,-0.5951 -0.3188,-1.09085 -0.28125,-1.4375 0.004,-0.0331 0.0253,-0.0622 0.0312,-0.0937 0.0165,-0.0878 0.0497,-0.17153 0.0937,-0.25 0.0394,-0.0702 0.0843,-0.15296 0.15625,-0.21875 -0.0691,0.0651 -0.11813,0.14619 -0.15625,0.21875 -0.0443,0.0844 -0.0771,0.16129 -0.0937,0.25 1.22046,0.42061 2.58368,-0.23985 2.9375,-1.34375 h 1.21875 l 0.65625,0.4375 v 0.875 l -1.71875,0.78125 v 0.0312 c -1.25624,0.34037 -1.93797,1.23405 -2.03125,2.1875 -0.0637,0.65143 0.12404,1.29883 0.53125,1.8125 0.1138,0.53508 0.35528,1.0035 0.75,1.375 0.71434,0.67232 1.86713,0.96642 3.40625,0.8125 a 0.29731207,0.29731207 0 0 0 0.0937,-0.0312 0.29731207,0.29731207 0 0 0 0.0625,-0.0312 0.29731207,0.29731207 0 0 0 0.0312,-0.0312 0.29731207,0.29731207 0 0 0 0.0625,-0.28125 0.29731207,0.29731207 0 0 0 -0.0625,-0.125 c -0.23008,-0.23009 -0.515,-0.55124 -0.75,-0.90625 0.0313,-0.0188 0.0636,-0.0422 0.0937,-0.0625 0.70273,-0.4711 1.07059,-1.30739 1,-2.21875 l 3.625,-2.21875 1.125,0.4375 c -0.30457,0.75843 -0.30986,1.55775 -0.0312,2.21875 0.0708,-0.10473 0.13128,-0.23074 0.1875,-0.40625 -0.0498,0.14788 -0.12481,0.30914 -0.1875,0.40625 -0.0574,0.0889 -0.11394,0.15681 -0.1875,0.21875 -0.27243,0.22942 -0.81097,0.35771 -1.78125,0.65625 a 0.29731207,0.29731207 0 0 0 -0.1875,0.34375 0.29731207,0.29731207 0 0 0 0.0312,0.0937 0.29731207,0.29731207 0 0 0 0.0312,0.0625 0.29731207,0.29731207 0 0 0 0.0312,0.0312 c 1.29626,1.06751 2.40779,1.49619 3.375,1.28125 0.65065,-0.14459 1.19228,-0.58114 1.65625,-1.21875 2.44136,-0.174 3.01832,-3.66754 1.25,-4.84375 v -2.03125 c 0.78541,-0.19676 1.34971,-0.23889 1.5625,-0.15625 0.24272,0.0943 0.32347,0.25684 0.46875,0.5625 0.14528,0.30566 0.37305,0.74054 0.875,0.96875 0.50195,0.22821 1.21039,0.26816 2.40625,0.0625 a 0.29731207,0.29731207 0 0 0 0.25,-0.28125 l 0.0937,-2.375 2.1875,-0.4375 -0.0937,2.28125 a 0.29731207,0.29731207 0 0 0 0.0312,0.15625 0.29731207,0.29731207 0 0 0 0.125,0.125 0.29731207,0.29731207 0 0 0 0.1875,0.0312 l 2.75,-0.53125 a 0.29731207,0.29731207 0 0 0 0.21875,-0.125 0.29731207,0.29731207 0 0 0 0.0312,-0.125 L 148.8125,106.5 151,106.0625 l -0.15625,2.5 a 0.29731207,0.29731207 0 0 0 0.0312,0.15625 0.29731207,0.29731207 0 0 0 0.125,0.125 0.29731207,0.29731207 0 0 0 0.1875,0.0312 l 2.75,-0.5 a 0.29731207,0.29731207 0 0 0 0.21875,-0.15625 0.29731207,0.29731207 0 0 0 0.0312,-0.0625 0.29731207,0.29731207 0 0 0 0,-0.0312 l 0.28125,-3 a 0.29731207,0.29731207 0 0 0 -0.0312,-0.0937 l -0.6875,-4.25 v -0.0312 l -0.28125,-4.25 1.625,-0.875 0.0937,-0.03125 0.0312,-0.03125 a 0.29731207,0.29731207 0 0 0 0.15625,-0.28125 0.29731207,0.29731207 0 0 0 0,-0.03125 A 0.29731207,0.29731207 0 0 0 155,95 Z m -2.125,1.4375 0.28125,4.40625 a 0.29731207,0.29731207 0 0 0 0,0.0312 l 0.71875,4.1875 v 0.0625 l -0.25,2.6875 -2.15625,0.4375 0.15625,-2.5625 a 0.29731207,0.29731207 0 0 0 0,-0.0625 0.29731207,0.29731207 0 0 0 -0.0312,-0.0937 0.29731207,0.29731207 0 0 0 -0.0937,-0.0937 0.29731207,0.29731207 0 0 0 -0.0625,-0.0312 0.29731207,0.29731207 0 0 0 -0.15625,-0.0312 l -2.8125,0.59375 a 0.29731207,0.29731207 0 0 0 -0.0625,0.0312 0.29731207,0.29731207 0 0 0 -0.125,0.125 0.29731207,0.29731207 0 0 0 -0.0312,0.125 l -0.1875,2.5625 -2.15625,0.40625 0.0937,-2.3125 a 0.29731207,0.29731207 0 0 0 -0.0312,-0.15625 0.29731207,0.29731207 0 0 0 -0.125,-0.125 0.29731207,0.29731207 0 0 0 -0.1875,-0.0312 l -2.8125,0.59375 a 0.29731207,0.29731207 0 0 0 -0.21875,0.15625 0.29731207,0.29731207 0 0 0 -0.0312,0.125 l -0.0937,2.3125 c -0.89132,0.11676 -1.52455,0.0995 -1.8125,-0.0312 -0.32766,-0.14897 -0.4529,-0.35991 -0.59375,-0.65625 -0.14085,-0.29634 -0.32071,-0.69614 -0.78125,-0.875 -0.46054,-0.17886 -1.08987,-0.1248 -2.15625,0.1875 a 0.29731207,0.29731207 0 0 0 -0.1875,0.15625 0.29731207,0.29731207 0 0 0 -0.0312,0.125 v 2.375 a 0.29731207,0.29731207 0 0 0 0.0312,0.125 0.29731207,0.29731207 0 0 0 0.125,0.125 0.29731207,0.29731207 0 0 0 0.0312,0 c 1.32736,0.66368 1.14293,3.28298 -0.4375,3.8125 0.0713,-0.12765 0.14992,-0.23733 0.21875,-0.375 0.25753,-0.51506 0.24077,-1.01057 0.0312,-1.40625 -0.20947,-0.39568 -0.5633,-0.67481 -0.96875,-0.84375 -0.40545,-0.16894 -0.86918,-0.25396 -1.28125,-0.1875 -0.41207,0.0665 -0.8174,0.31298 -1,0.71875 0.0259,-0.31083 0.0813,-0.62116 0.25,-0.9375 a 0.29731207,0.29731207 0 0 0 0.0312,-0.15625 0.29731207,0.29731207 0 0 0 0,-0.0625 0.29731207,0.29731207 0 0 0 -0.1875,-0.1875 l -1.46875,-0.59375 a 0.29731207,0.29731207 0 0 0 -0.1875,-0.0312 0.29731207,0.29731207 0 0 0 -0.0312,0 0.29731207,0.29731207 0 0 0 -0.0625,0.0312 l -3.875,2.375 a 0.29731207,0.29731207 0 0 0 -0.0312,0.0312 0.29731207,0.29731207 0 0 0 -0.0312,0.0312 0.29731207,0.29731207 0 0 0 -0.0625,0.125 0.29731207,0.29731207 0 0 0 0,0.125 c 0.1306,0.78353 -0.18188,1.49414 -0.75,1.875 -0.0192,0.0129 -0.0427,0.0191 -0.0625,0.0312 -0.15583,-0.39631 -0.18838,-0.80042 0.0312,-1.21875 a 0.29731207,0.29731207 0 0 0 0,-0.0312 c 0.1864,-0.41423 0.0712,-0.847 -0.15625,-1.21875 -0.22743,-0.37175 -0.55531,-0.69907 -0.96875,-0.875 -0.41344,-0.17593 -0.91594,-0.19894 -1.34375,0.0625 -0.32086,0.19608 -0.57308,0.54153 -0.75,1.03125 0.13836,-0.65498 0.5757,-1.25634 1.5625,-1.5 a 0.29731207,0.29731207 0 0 0 0.0625,0 l 1.90625,-0.90625 a 0.29731207,0.29731207 0 0 0 0.15625,-0.1875 0.29731207,0.29731207 0 0 0 0,-0.0937 v -1.1875 a 0.29731207,0.29731207 0 0 0 0,-0.0937 0.29731207,0.29731207 0 0 0 -0.0312,-0.0625 0.29731207,0.29731207 0 0 0 -0.0312,-0.0312 0.29731207,0.29731207 0 0 0 -0.0312,-0.0312 0.29731207,0.29731207 0 0 0 -0.0312,-0.0312 l -0.875,-0.59375 a 0.29731207,0.29731207 0 0 0 -0.1875,-0.0312 h -1.40625 a 0.29731207,0.29731207 0 0 0 -0.0937,0 0.29731207,0.29731207 0 0 0 -0.0625,0.0312 0.29731207,0.29731207 0 0 0 -0.125,0.125 0.29731207,0.29731207 0 0 0 -0.0312,0.0937 c -0.0982,0.81821 -1.19369,1.49888 -2.21875,1.1875 0.11931,-0.10091 0.26984,-0.18118 0.5,-0.28125 0.40391,-0.20714 0.61618,-0.62887 0.65625,-1.0625 0.0401,-0.43363 -0.0609,-0.90599 -0.28125,-1.3125 -0.22037,-0.40651 -0.58183,-0.77321 -1.0625,-0.90625 -0.18477,-0.0511 -0.38502,-0.0535 -0.59375,-0.0312 0.60305,-0.54631 1.47654,-0.7804 2.375,-0.28125 a 0.29731207,0.29731207 0 0 0 0.125,0.0312 0.29731207,0.29731207 0 0 0 0.125,0 l 3.0625,-0.875 a 0.29731207,0.29731207 0 0 0 0.15625,-0.0937 0.29731207,0.29731207 0 0 0 0.0312,-0.0625 0.29731207,0.29731207 0 0 0 0.0312,-0.125 v -1.1875 a 0.29731207,0.29731207 0 0 0 -0.125,-0.25 l -0.875,-0.59375 a 0.29731207,0.29731207 0 0 0 -0.34375,0 c 0,0 -0.27065,0.18485 -0.65625,0.28125 -0.3856,0.0964 -0.85654,0.10759 -1.375,-0.28125 -0.0265,-0.0205 -0.0373,-0.0419 -0.0625,-0.0625 0.3149,-0.14995 0.7348,-0.19961 1.25,-0.625 0.0258,-0.0213 0.0361,-0.008 0.0625,-0.0312 l -0.0312,-0.0312 c 0.33806,-0.20387 0.72504,-0.57262 0.8125,-1.125 0.0459,-0.28993 -0.0132,-0.60683 -0.21875,-0.90625 -0.20556,-0.29942 -0.53106,-0.57431 -1.03125,-0.8125 -0.0949,-0.04909 -0.18426,-0.09355 -0.28125,-0.125 0.30042,-0.11093 0.61582,-0.16616 0.9375,-0.125 0.59678,0.0763 1.20438,0.4218 1.6875,1.25 a 0.29731207,0.29731207 0 0 0 0.0312,0.0312 0.29731207,0.29731207 0 0 0 0.0625,0.0625 0.29731207,0.29731207 0 0 0 0.0625,0.0312 l 6.21875,2.6875 a 0.29731207,0.29731207 0 0 0 0.21875,0 l 18.8125,-6.875 z m -28.84375,3.4375 c 0.2633,-0.03505 0.54184,0.0163 0.8125,0.15625 a 0.29731207,0.29731207 0 0 0 0.0312,0 c 0.43624,0.20774 0.68641,0.41008 0.8125,0.59375 0.12609,0.18367 0.1497,0.34401 0.125,0.5 -0.0494,0.31199 -0.37667,0.64676 -0.5625,0.75 a 0.29731207,0.29731207 0 0 0 -0.0625,0.0312 c -0.4566,0.40287 -0.70653,0.3796 -1.15625,0.59375 -0.34329,0.16347 -0.79449,0.76973 -1.28125,1.4375 -0.45327,-1.33574 -0.357,-2.48036 0.0937,-3.1875 0.25331,-0.39734 0.58865,-0.68685 0.9375,-0.8125 0.0872,-0.03141 0.16223,-0.05082 0.25,-0.0625 z m -2.28125,7.25 c 0.19023,-0.0382 0.35433,-0.009 0.5,0.0312 0.29133,0.0806 0.52512,0.29422 0.6875,0.59375 0.16238,0.29953 0.2465,0.66846 0.21875,0.96875 -0.0277,0.30029 -0.13671,0.5036 -0.3125,0.59375 -0.74082,0.32209 -1.09719,0.79856 -1.15625,1.34375 -0.0306,0.28236 0.0862,0.5858 0.15625,0.875 -0.90338,-0.64305 -1.44949,-1.39414 -1.5625,-2.09375 -0.13916,-0.86147 0.20918,-1.62293 0.8125,-2 0.24966,-0.16869 0.46602,-0.27428 0.65625,-0.3125 z m 3.53125,5.6875 c 0.18679,-0.0492 0.37987,0.003 0.59375,0.0937 0.28518,0.12135 0.55971,0.36503 0.71875,0.625 0.15205,0.24853 0.19267,0.4782 0.125,0.65625 -0.003,0.008 0.004,0.0233 0,0.0312 -0.34417,0.68322 -0.22318,1.40543 0.0625,1.96875 0.17375,0.3426 0.4055,0.52738 0.625,0.78125 -1.06056,0.004 -1.88616,-0.19433 -2.34375,-0.625 -0.54257,-0.51065 -0.72336,-1.29057 -0.59375,-2.25 0.002,-0.0115 -0.002,-0.0196 0,-0.0312 0.14027,-0.6647 0.3889,-1.01197 0.625,-1.15625 0.0603,-0.0368 0.12524,-0.0774 0.1875,-0.0937 z m 9.5,0.0937 c 0.27912,-0.045 0.62948,-0.003 0.9375,0.125 0.30802,0.12834 0.56254,0.3577 0.6875,0.59375 0.12496,0.23605 0.1571,0.49821 -0.0312,0.875 -0.57684,1.15367 -1.17,1.81208 -1.875,1.96875 -0.60184,0.13374 -1.43286,-0.1815 -2.40625,-0.875 0.54936,-0.17037 1.09549,-0.33205 1.40625,-0.59375 0.41829,-0.35224 0.60268,-0.89918 0.75,-1.75 0.085,-0.18879 0.25213,-0.29873 0.53125,-0.34375 z"
               transform="translate(52.03125,53.96875)"
               id="path8516"
               inkscape:connector-curvature="0" />
            <path
               style="fill:#ffdd00;stroke:none"
               d="m 170.84375,67.34375 v 1.71875 h -7.15625 c -0.29727,0 -0.59375,0.09291 -0.59375,0.6875 v 1.3125 h 3.28125 c 0,1.93234 -3.28125,0.76278 -3.28125,2.84375 v 3.25 c 2.08098,-0.59456 1.20981,-2.375 7.75,-2.375 v 6.5625 c -5.64834,0 -3.5897,0.59375 -6.5625,0.59375 l -1.1875,-0.90625 v 4.15625 c 2.9728,0 1.20981,-2.0625 7.75,-2.0625 v 2.0625 c 0,2.08098 -1.79402,3.56168 -3.875,4.15625 l -14.28125,4.78125 -0.0937,2.4375 4.28125,-0.65625 0.28125,2.0625 -3.875,0.3125 -0.625,-1.65625 0.84375,8.78125 6.9375,-1.46875 2.0625,2.0625 -5.34375,0.90625 1.78125,1.78125 5.34375,-0.59375 1.78125,1.78125 -5.625,0.59375 1.78125,2.0625 5.9375,-0.59375 2.09375,2.09375 -6.25,0.3125 1.78125,1.78125 h 7.4375 l 10.6875,7.40625 c 2.08098,1.48641 2.07936,2.99593 1.1875,5.96875 l -6.25,19.90625 h 3 l 1.46875,-4.46875 2.6875,0.3125 -1.5,4.15625 h 2.6875 l 1.46875,-3.875 2.6875,0.3125 -1.1875,3.5625 h 2.6875 l 1.1875,-3.28125 2.65625,0.3125 -1.1875,2.96875 c 4.16197,0.59457 2.3845,-2.96957 6.84375,-2.375 l -4.9375,10.125 -0.125,-0.0312 h -11.59375 c -3.27011,0 -2.99776,3.28043 -2.34375,3.875 1.15943,1.48641 2.93667,1.78369 3.53125,0 l 2.6875,-1.5 0.59375,0.3125 v 0.90625 l -4.8125,2.375 c -2.61607,0 -2.3325,3.54646 -0.28125,3.84375 1.21886,0.29728 2.71875,0.002 2.71875,-1.78125 l 3.28125,-2.0625 0.59375,0.28125 v 0.90625 l -3.875,2.375 c -4.34032,2.67554 3.875,7.4144 3.875,1.46875 l 5.625,-3.25 h 1.5 l 2.09375,2.375 c -1.18913,6.24293 6.81659,3.85027 3.84375,-0.90625 l -1.84375,-2.5625 -1.125,-1.59375 1.75,-2.5 c 1.14477,-0.31085 2.68213,0.88802 4.78125,-2.84375 h -3.25 l 1.1875,-2.375 h 3.84375 l 1.5,-2.375 h -3.875 l 1.5,-2.375 h 4.15625 l 1.5,-2.375 h -4.46875 l 1.46875,-2.40625 h 4.78125 l 1.46875,-2.375 -18.125,-4.75 c -0.89186,-0.29728 -1.1875,-0.5769 -1.1875,-1.46875 l 1.46875,-13.6875 c 3.56739,3.56739 8.32447,2.36222 11,0.28125 2.37826,-2.08098 4.18996,-5.6193 2.40625,-9.78125 -4.40559,-9.31555 -9.48099,-18.246959 -13.6875,-27.65625 -1.4864,-2.37826 1.47988,-5.34375 4.75,-5.34375 9.25632,-0.56903 15.49949,-1.78179 20.53125,-11.59375 h -17.25 c -10.10762,0 -13.69159,9.49186 -10.71875,15.4375 l 14.875,30.34375 c 2.37826,5.35108 -5.36685,12.4769 -11.3125,6.53125 l -15.4375,-16.34375 1.1875,-2.375 3.25,3.5625 0.59375,-2.6875 -3.25,-3.28125 v -3.25 l 3.875,3.84375 0.28125,-3.25 -4.15625,-3.5625 v -3.28125 l 4.46875,3.5625 v -3.25 l -4.46875,-3.59375 v -3.25 l 4.15625,2.96875 -0.28125,-3.28125 -3.875,-2.96875 v -3.375 l 3.25,2.5 -0.59375,-3.53125 h -7.125 v -1.21875 h 5.65625 c 1.78371,0 3.5625,-0.25626 3.5625,-7.09375 -2.97281,0 -0.60405,0.75 -4.46875,0.75 v -1.125 z m 0.28125,2.5 h 6.25 c 0,1.07022 -1.5,0.90625 -1.5,0.90625 0,0 -0.88777,1.71875 -2.96875,1.71875 V 70.75 c 0,0 -1.78125,-0.13331 -1.78125,-0.90625 z m -13.0625,30.34375 0.875,2.0625 -4.15625,0.3125 -0.90625,-1.78125 z m 25.84375,6.40625 2.96875,3.28125 -1.78125,1.46875 -2.96875,-3.25 z m -3.84375,2.96875 3.25,2.96875 -2.375,0.90625 -2.96875,-2.6875 z m -4.1875,2.375 2.6875,2.6875 -2.09375,0.90625 -2.96875,-2.375 z m -20.21875,8.625 v 2.6875 h 4.78125 v 2.375 h -4.78125 V 128 h 4.78125 v 2.375 h -4.78125 v 2.375 h 4.78125 v 2.375 h -4.78125 c -0.35377,2.46745 1.56926,2.9662 3.59375,5.96875 l -11.90625,11.875 H 135.75 c -3.27011,0 -2.99776,3.28043 -2.34375,3.875 1.15943,1.48641 2.93667,1.78369 3.53125,0 l 2.6875,-1.5 0.59375,0.3125 v 0.875 l -4.8125,2.375 c -2.61607,0 -2.33251,3.57772 -0.28125,3.875 1.21886,0.29728 2.71875,0.002 2.71875,-1.78125 l 3.25,-2.09375 0.59375,0.3125 v 0.90625 l -3.84375,2.375 c -4.34032,2.67554 3.84375,7.4144 3.84375,1.46875 l 5.65625,-3.25 h 1.5 l 2.0625,2.375 c -1.18912,6.24293 6.84784,3.85027 3.875,-0.90625 l -1.84375,-2.59375 -1.125,-1.5625 0.40625,-0.5625 c 2.43368,-1.7882 1.93303,1.28693 4.9375,-0.625 l -1.5,-2.09375 2.09375,-1.78125 1.5,2.6875 2.0625,-1.5 -1.46875,-2.96875 1.78125,-1.46875 2.0625,3.25 2.09375,-1.46875 -2.09375,-3.5625 1.78125,-1.5 2.375,3.5625 2.09375,-1.1875 -2.375,-4.15625 3.5625,-11 c 0.29727,-0.59457 0.59292,-0.89022 1.1875,-1.1875 l 11,-3.5625 c 1.18913,-0.29728 2.08098,-2.98234 0,-4.46875 l -5.65625,-3.875 z"
               transform="translate(52.03125,53.96875)"
               id="path5241"
               inkscape:connector-curvature="0"
               sodipodi:nodetypes="ccssccscccccccscccccccccccccccccccccccccccccccccccccccscccccccccccccccccccccccccccccccccccccccccscccccccccccccccccccccccccscccccccccccccccccccccccccccccccccccccccccccccscccccccccccccccccccccccccccccccccccccccc" />
            <path
               id="path21"
               style="fill:#ee2211;stroke:none"
               d="m 185.40974,208.43051 c -1.48644,1.18913 -1.48644,3.86467 0.23781,5.35108 0,-2.67554 1.54587,-2.67554 1.54587,-2.67554 1.18913,-0.89185 0.29727,-3.27011 -1.78368,-2.67554 z m 0.89182,5.94564 c -0.89182,0.89185 -0.59455,4.45924 1.78371,4.75652 -0.29727,-1.78369 0.29728,-2.08098 0.59455,-3.2701 0.26758,-1.18913 -1.18913,-2.67554 -2.37826,-1.48642 z m 17.2424,3.56739 c 0,1.18913 0,2.08098 -1.78371,3.27011 3.27011,0.29728 3.86466,-0.29728 4.75651,-2.37826 0,-2.08098 -1.78367,-2.08098 -2.9728,-0.89185 z m -14.03174,0 c -0.74321,1.18913 -0.23782,3.86467 2.43772,3.86467 -0.59455,-1.18913 -0.11893,-1.78369 0,-2.67554 0.59458,-1.78369 -1.78368,-2.37826 -2.43772,-1.18913 z m 45.84092,-5.35108 c -1.48643,1.18913 -1.48643,3.86467 0.23782,5.35108 0,-2.67554 1.54586,-2.67554 1.54586,-2.67554 1.18913,-0.89185 0.29727,-3.2701 -1.78368,-2.67554 z m 0.89183,5.94565 c -0.89183,0.89184 -0.59455,4.45923 1.78371,4.75651 -0.29728,-1.78369 0.29727,-2.08097 0.59454,-3.2701 0.26758,-1.18913 -1.18913,-2.67554 -2.37825,-1.48641 z m 17.24239,3.56738 c 0,1.18913 0,2.08098 -1.78371,3.27011 3.27011,0.29728 3.86466,-0.29728 4.75652,-2.37826 0,-2.08097 -1.78368,-2.08097 -2.97281,-0.89185 z m -14.03174,0 c -0.7432,1.18913 -0.23781,3.86468 2.43772,3.86468 -0.59455,-1.18913 -0.11892,-1.7837 0,-2.67555 0.59458,-1.78369 -1.78368,-2.37825 -2.43772,-1.18913 z"
               inkscape:connector-curvature="0" />
            <path
               style="color:#000000;font-style:normal;font-variant:normal;font-weight:normal;font-stretch:normal;font-size:medium;line-height:normal;font-family:Sans;-inkscape-font-specification:Sans;text-indent:0;text-align:start;text-decoration:none;text-decoration-line:none;letter-spacing:normal;word-spacing:normal;text-transform:none;writing-mode:lr-tb;direction:ltr;baseline-shift:baseline;text-anchor:start;display:inline;overflow:visible;visibility:visible;fill:#000000;fill-opacity:1;fill-rule:nonzero;stroke:none;stroke-width:0.59456468;marker:none;enable-background:accumulate"
               d="m 135.75,152.6875 c -1.73415,0 -2.648,0.9137 -2.9375,1.90625 -1.22698,1.40726 -1.07637,3.86546 0.53125,5.34375 -0.0938,0.25873 -0.12609,0.53979 -0.125,0.8125 0.002,0.41194 0.11096,0.82076 0.3125,1.1875 0.002,0.37926 0.0285,0.77035 0.125,1.15625 0.2787,1.11481 1.04216,2.2084 2.375,2.375 a 0.29731207,0.29731207 0 0 0 0.15625,-0.0312 0.29731207,0.29731207 0 0 0 0.125,-0.125 0.29731207,0.29731207 0 0 0 0.0312,-0.1875 c -0.0238,-0.14248 -0.0186,-0.25321 -0.0312,-0.375 -0.0179,-0.1714 -0.0321,-0.33045 -0.0312,-0.46875 0.002,-0.35486 0.0433,-0.63001 0.125,-0.875 0.034,-0.10208 0.0812,-0.20814 0.125,-0.3125 0.1573,-0.0361 0.32035,-0.0881 0.46875,-0.15625 -0.38831,0.4381 -0.66523,0.88599 -0.71875,1.34375 -0.0178,0.15259 -0.002,0.31782 0.0312,0.46875 0.10002,0.45918 0.35377,0.86786 0.6875,1.21875 0.006,0.006 -0.006,0.0252 0,0.0312 0.0434,0.15879 0.0871,0.31504 0.15625,0.46875 0.40878,0.90839 1.31314,1.65625 2.75,1.65625 a 0.29731207,0.29731207 0 0 0 0.15625,-0.0312 0.29731207,0.29731207 0 0 0 0.125,-0.125 0.29731207,0.29731207 0 0 0 0.0312,-0.0937 0.29731207,0.29731207 0 0 0 -0.0312,-0.15625 c -0.11813,-0.23627 -0.17863,-0.44148 -0.21875,-0.625 -0.0479,-0.21912 -0.0536,-0.40586 -0.0312,-0.59375 0.002,-0.02 -0.003,-0.0425 0,-0.0625 0.053,-0.36432 0.21607,-0.72994 0.28125,-1.21875 h -0.0312 c 0.15577,-0.49337 0.15281,-0.95799 -0.0312,-1.3125 -0.1885,-0.36295 -0.51571,-0.58568 -0.875,-0.71875 -0.35929,-0.13307 -0.78467,-0.16643 -1.15625,-0.0625 -0.35748,0.1 -0.66836,0.33895 -0.875,0.6875 h -0.0312 c -0.005,0.008 0.005,0.0231 0,0.0312 -0.1472,0.24314 -0.22847,0.54315 -0.28125,0.84375 -0.006,-0.0223 -0.0264,-0.0402 -0.0312,-0.0625 -0.13263,-0.60885 0.0778,-1.24872 1.09375,-1.875 l 3.84375,-2.375 0.15625,-0.0937 v -0.15625 -0.90625 -0.1875 l -0.15625,-0.0937 -0.59375,-0.28125 -0.15625,-0.0625 -0.15625,0.0625 -3.25,2.09375 -0.15625,0.0937 v 0.15625 c 0,0.80927 -0.28605,1.19144 -0.71875,1.40625 -0.009,0.004 -0.0224,-0.004 -0.0312,0 0.0507,-0.14139 0.11342,-0.26619 0.15625,-0.4375 0.16498,-0.73317 -0.18114,-1.49653 -0.75,-1.9375 -0.28443,-0.22049 -0.62091,-0.3555 -1,-0.34375 -0.37909,0.0118 -0.78436,0.15936 -1.125,0.5 -0.0747,0.0747 -0.12882,0.15827 -0.1875,0.25 0.0485,-0.28423 0.12875,-0.54768 0.3125,-0.75 0.24995,-0.27521 0.6323,-0.46875 1.21875,-0.46875 h 0.0625 l 0.0625,-0.0312 4.8125,-2.375 0.15625,-0.0937 v -0.1875 -0.875 -0.1875 l -0.15625,-0.0937 -0.59375,-0.28125 -0.125,-0.0625 -0.15625,0.0625 -2.65625,1.5 -0.125,0.0312 -0.0312,0.125 c -0.26752,0.80254 -0.70488,1.0617 -1.25,1.03125 -0.20637,-0.0115 -0.42885,-0.10511 -0.65625,-0.21875 0.2302,-0.14088 0.40625,-0.125 0.40625,-0.125 a 0.29731207,0.29731207 0 0 0 0.1875,-0.0625 c 0.72458,-0.54343 0.79884,-1.5397 0.40625,-2.28125 -0.33597,-0.6346 -1.07583,-1.08875 -2,-1 0.34857,-0.46649 0.94403,-0.8125 2,-0.8125 h 11.59375 v -0.59375 h -11.59375 z m 4.1875,13.8125 c -0.0224,0.18789 -0.0166,0.37463 0.0312,0.59375 0.23103,-0.0331 0.44309,-0.0816 0.65625,-0.1875 0.77576,-0.38531 1.29203,-1.3266 1.34375,-2.75 L 147.4375,161 h 1.28125 l 1.90625,2.21875 c -0.18035,1.11212 -0.0794,1.98388 0.21875,2.625 -0.23813,0.35087 -0.63377,0.7246 -1.28125,1.15625 a 0.29731207,0.29731207 0 0 0 -0.0312,0.0312 0.29731207,0.29731207 0 0 0 -0.0625,0.0625 0.29731207,0.29731207 0 0 0 -0.0312,0.1875 0.29731207,0.29731207 0 0 0 0.25,0.25 c 1.65447,0.1504 2.70834,0.10995 3.46875,-0.3125 0.0608,-0.0338 0.10003,-0.0867 0.15625,-0.125 0.0945,-0.0151 0.18852,-0.006 0.28125,-0.0312 0.82904,-0.22798 1.58426,-0.86171 1.9375,-1.75 0.35324,-0.88829 0.28098,-2.03169 -0.5,-3.28125 l -1.84375,-2.59375 -1,-1.4375 1.9375,-2.78125 -0.46875,-0.34375 -2.09375,2.96875 -0.125,0.1875 0.125,0.15625 1.125,1.59375 1.84375,2.5625 c 0.006,0.01 -0.006,0.0214 0,0.0312 0.68737,1.11515 0.74476,2.02465 0.46875,2.71875 -0.16387,0.41211 -0.44093,0.75259 -0.78125,1 0.18525,-0.32556 0.35216,-0.70711 0.53125,-1.125 a 0.29731207,0.29731207 0 0 0 0.0312,-0.0937 c 0,-0.56271 -0.1154,-1.03818 -0.34375,-1.375 -0.22835,-0.33682 -0.57112,-0.52505 -0.9375,-0.59375 -0.73275,-0.13739 -1.54038,0.19663 -2.1875,0.84375 a 0.29731207,0.29731207 0 0 0 -0.0312,0.0312 0.29731207,0.29731207 0 0 0 -0.0625,0.125 0.29731207,0.29731207 0 0 0 0,0.0625 c 0,0.37212 -0.0169,0.69515 -0.0625,1 -0.0883,-0.47727 -0.0807,-1.09187 0.0625,-1.84375 L 151.25,163 l -0.0937,-0.125 -2.09375,-2.375 -0.0937,-0.0937 h -0.125 -1.5 -0.0625 l -0.0937,0.0312 -5.625,3.28125 -0.15625,0.0937 v 0.15625 c 0,1.41804 -0.47534,2.11462 -1.0625,2.40625 -0.12624,0.0627 -0.26472,0.0987 -0.40625,0.125 z m -5.8125,-11.8125 c 0.53593,0.0254 0.89228,0.30694 1.09375,0.6875 0.2763,0.5219 0.21455,1.18283 -0.25,1.53125 -0.13869,0.0135 -0.40704,0.0199 -0.78125,0.34375 -0.36061,0.31206 -0.62253,0.95415 -0.75,1.84375 -1.10736,-1.38759 -1.03651,-3.38155 0.0937,-4.34375 0.22095,-0.0559 0.41511,-0.071 0.59375,-0.0625 z m 5.53125,1 0.25,0.125 v 0.5625 l -4.625,2.28125 c -0.52478,0.0272 -0.97786,0.18433 -1.3125,0.4375 0.0699,-0.49783 0.18796,-0.82369 0.34375,-1.0625 0.34693,0.20356 0.69801,0.32339 1.0625,0.34375 0.72615,0.0406 1.36033,-0.44225 1.71875,-1.28125 0.003,-0.006 0.0288,0.006 0.0312,0 l 2.53125,-1.40625 z m 46.03125,1.15625 c -1.73415,0 -2.61675,0.9137 -2.90625,1.90625 -1.25971,1.39708 -1.12075,3.8544 0.5,5.34375 -0.0938,0.25873 -0.12609,0.53979 -0.125,0.8125 0.002,0.41194 0.11096,0.82076 0.3125,1.1875 -0.007,0.37913 0.0286,0.77051 0.125,1.15625 0.2787,1.11481 1.04216,2.2084 2.375,2.375 a 0.29731207,0.29731207 0 0 0 0.25,-0.0937 0.29731207,0.29731207 0 0 0 0.0312,-0.0625 0.29731207,0.29731207 0 0 0 0.0312,-0.1875 c -0.0238,-0.14248 -0.0186,-0.25321 -0.0312,-0.375 -0.0179,-0.1714 -0.0321,-0.33045 -0.0312,-0.46875 0.002,-0.35486 0.0433,-0.63001 0.125,-0.875 0.034,-0.10208 0.0812,-0.20814 0.125,-0.3125 0.15778,-0.0383 0.3218,-0.0913 0.46875,-0.15625 -0.38831,0.4381 -0.66523,0.88599 -0.71875,1.34375 -0.0178,0.15259 -0.002,0.31782 0.0312,0.46875 0.10002,0.45918 0.35377,0.86786 0.6875,1.21875 0.006,0.006 -0.006,0.0252 0,0.0312 0.0419,0.1588 0.0871,0.31502 0.15625,0.46875 0.40878,0.90839 1.34439,1.6875 2.78125,1.6875 a 0.29731207,0.29731207 0 0 0 0.1875,-0.0937 0.29731207,0.29731207 0 0 0 0.0312,-0.0312 0.29731207,0.29731207 0 0 0 0.0312,-0.3125 c -0.11813,-0.23627 -0.17863,-0.44148 -0.21875,-0.625 -0.0454,-0.20743 -0.05,-0.3842 -0.0312,-0.5625 0.003,-0.0301 -0.004,-0.0638 0,-0.0937 0.0517,-0.35545 0.21374,-0.71586 0.28125,-1.1875 0.002,-0.0118 -0.002,-0.0195 0,-0.0312 0.15548,-0.49307 0.12152,-0.92693 -0.0625,-1.28125 -0.1885,-0.36295 -0.51571,-0.61693 -0.875,-0.75 -0.35929,-0.13307 -0.78467,-0.16643 -1.15625,-0.0625 -0.35748,0.1 -0.66836,0.33895 -0.875,0.6875 -0.004,0.006 0.004,0.0251 0,0.0312 -0.15224,0.25136 -0.22496,0.5629 -0.28125,0.875 -0.0173,-0.0334 -0.0552,-0.0602 -0.0625,-0.0937 -0.13263,-0.60885 0.0778,-1.24872 1.09375,-1.875 l 3.875,-2.375 0.125,-0.0937 v -0.15625 -0.90625 -0.1875 l -0.15625,-0.0625 -0.59375,-0.3125 -0.15625,-0.0625 -0.125,0.0937 -3.28125,2.0625 -0.15625,0.0937 v 0.15625 c 0,0.80927 -0.28605,1.19144 -0.71875,1.40625 -0.009,0.004 -0.0224,-0.004 -0.0312,0 0.0507,-0.14139 0.11342,-0.26619 0.15625,-0.4375 0.16498,-0.73317 -0.18114,-1.49653 -0.75,-1.9375 -0.28443,-0.22049 -0.62091,-0.3555 -1,-0.34375 -0.37909,0.0118 -0.78436,0.15936 -1.125,0.5 -0.0747,0.0747 -0.13175,0.15827 -0.1875,0.25 0.0485,-0.28423 0.12875,-0.54768 0.3125,-0.75 0.24995,-0.27521 0.6323,-0.46875 1.21875,-0.46875 h 0.0625 l 0.0625,-0.0312 4.8125,-2.375 0.1875,-0.0937 v -0.15625 -0.90625 -0.1875 l -0.1875,-0.0625 -0.59375,-0.3125 -0.125,-0.0625 -0.15625,0.0625 -2.65625,1.5 -0.0937,0.0625 -0.0625,0.0937 c -0.26752,0.80254 -0.70488,1.0617 -1.25,1.03125 -0.20637,-0.0115 -0.42885,-0.10511 -0.65625,-0.21875 0.2302,-0.14088 0.40625,-0.125 0.40625,-0.125 a 0.29731207,0.29731207 0 0 0 0.1875,-0.0625 c 0.72458,-0.54343 0.79884,-1.5397 0.40625,-2.28125 -0.33974,-0.64173 -1.06725,-1.1021 -2,-1 0.34857,-0.46649 0.94403,-0.8125 2,-0.8125 h 11.59375 v -0.59375 H 185.6875 Z m 4.1875,13.84375 c -0.0187,0.1783 -0.0141,0.35507 0.0312,0.5625 0.23103,-0.0331 0.44309,-0.0816 0.65625,-0.1875 0.76933,-0.38211 1.28432,-1.316 1.34375,-2.71875 l 5.46875,-3.1875 h 1.28125 l 1.90625,2.21875 c -0.17812,1.09846 -0.0706,1.97698 0.21875,2.625 -0.23813,0.35087 -0.63377,0.7246 -1.28125,1.15625 a 0.29731207,0.29731207 0 0 0 -0.0312,0.0312 0.29731207,0.29731207 0 0 0 -0.0312,0.0312 0.29731207,0.29731207 0 0 0 -0.0312,0.0625 0.29731207,0.29731207 0 0 0 -0.0312,0.1875 0.29731207,0.29731207 0 0 0 0.0625,0.125 0.29731207,0.29731207 0 0 0 0.0312,0.0312 0.29731207,0.29731207 0 0 0 0.1875,0.0625 c 1.65447,0.1504 2.67709,0.10995 3.4375,-0.3125 0.0608,-0.0338 0.10003,-0.0871 0.15625,-0.125 0.0945,-0.0158 0.18852,-0.006 0.28125,-0.0312 0.82904,-0.22799 1.61551,-0.83046 1.96875,-1.71875 0.35324,-0.88829 0.24973,-2.06294 -0.53125,-3.3125 l -1.84375,-2.59375 -1,-1.40625 1.9375,-2.8125 -0.46875,-0.3125 -2.09375,2.96875 -0.125,0.15625 0.125,0.1875 1.15625,1.5625 1.8125,2.5625 c 0.006,0.01 -0.006,0.0214 0,0.0312 0.68764,1.11535 0.7448,2.05581 0.46875,2.75 -0.16791,0.42225 -0.46103,0.76024 -0.8125,1 0.19356,-0.32776 0.37669,-0.69145 0.5625,-1.125 a 0.29731207,0.29731207 0 0 0 0.0312,-0.125 c 0,-0.56271 -0.1154,-1.00693 -0.34375,-1.34375 -0.22835,-0.33682 -0.57112,-0.5563 -0.9375,-0.625 -0.73275,-0.13739 -1.54038,0.22789 -2.1875,0.875 a 0.29731207,0.29731207 0 0 0 -0.0312,0.0312 0.29731207,0.29731207 0 0 0 -0.0625,0.15625 c 0,0.38441 -0.012,0.71789 -0.0625,1.03125 -0.0883,-0.47727 -0.0807,-1.09187 0.0625,-1.84375 l 0.0312,-0.15625 -0.0937,-0.0937 -2.09375,-2.40625 -0.0937,-0.0937 h -0.125 -1.5 -0.0625 l -0.0625,0.0312 -5.65625,3.28125 -0.15625,0.0937 v 0.15625 c 0,1.41804 -0.44409,2.11462 -1.03125,2.40625 -0.13798,0.0685 -0.27893,0.12839 -0.4375,0.15625 z m -5.8125,-11.84375 c 0.54473,0.0254 0.92353,0.30694 1.125,0.6875 0.2763,0.5219 0.21455,1.18283 -0.25,1.53125 -0.12444,0.0105 -0.42566,0.009 -0.8125,0.34375 -0.36061,0.31207 -0.62253,0.95415 -0.75,1.84375 -1.10706,-1.38721 -1.03566,-3.38123 0.0937,-4.34375 0.22096,-0.0559 0.41217,-0.071 0.59375,-0.0625 z m -42.9375,0.40625 0.28125,0.15625 v 0.53125 l -3.53125,2.21875 c 0.14277,-0.26497 0.19256,-0.601 0.21875,-0.96875 z m 48.46875,0.59375 L 189.875,160 v 0.5 l -4.65625,2.3125 c -0.52478,0.0272 -0.97787,0.18433 -1.3125,0.4375 0.0699,-0.49783 0.18796,-0.82369 0.34375,-1.0625 0.34693,0.20356 0.69801,0.32339 1.0625,0.34375 0.72615,0.0406 1.36033,-0.44225 1.71875,-1.28125 0.003,-0.006 0.0288,0.006 0.0312,0 l 2.53125,-1.40625 z m -54.40625,0.4375 c 0.22013,-0.007 0.43006,0.0676 0.625,0.21875 0.38988,0.30223 0.63385,0.88779 0.53125,1.34375 -0.13885,0.52974 -0.34315,0.90443 -0.5,1.375 -0.12085,0.36256 -0.0979,0.92055 -0.0625,1.5 -0.81681,-0.25964 -1.35084,-0.93461 -1.5625,-1.78125 -0.12077,-0.48308 -0.14889,-0.98249 -0.0937,-1.40625 0.0551,-0.42376 0.1967,-0.7592 0.34375,-0.90625 0.25393,-0.25392 0.49862,-0.33693 0.71875,-0.34375 z m 55.875,3.15625 0.28125,0.125 v 0.5625 l -3.53125,2.1875 c 0.14298,-0.26536 0.22396,-0.60031 0.25,-0.96875 z M 153,163.5 c 0.12857,-0.0187 0.26534,-0.0206 0.375,0 0.22818,0.0428 0.41925,0.13246 0.5625,0.34375 0.13505,0.1992 0.2391,0.53433 0.25,0.96875 -0.42232,0.97345 -0.78318,1.56357 -1.34375,1.875 -0.43736,0.24298 -1.36363,0.21279 -2.34375,0.1875 0.41499,-0.3797 0.90031,-0.7778 1.0625,-1.15625 0.22422,-0.52318 0.21688,-1.03591 0.21875,-1.5625 0.39746,-0.37386 0.83303,-0.60008 1.21875,-0.65625 z m -14.3125,0.15625 c 0.1272,0.004 0.25365,0.0176 0.375,0.0625 0.24271,0.0899 0.45186,0.25571 0.5625,0.46875 0.11064,0.21304 0.12828,0.49018 0,0.875 a 0.29731207,0.29731207 0 0 0 0,0.0625 c -0.0538,0.40304 -0.21533,0.76554 -0.28125,1.21875 -0.0444,0.30548 0.1131,0.70779 0.21875,1.09375 -0.97188,-0.11776 -1.58721,-0.57922 -1.875,-1.21875 -0.327,-0.72666 -0.27114,-1.60984 0.0312,-2.09375 a 0.29731207,0.29731207 0 0 0 0.0312,0 c 0.1218,-0.22146 0.32279,-0.37421 0.5625,-0.4375 0.11986,-0.0317 0.2478,-0.0357 0.375,-0.0312 z m 46.4375,0.78125 c 0.22013,-0.007 0.46131,0.0676 0.65625,0.21875 0.38204,0.29615 0.61806,0.86111 0.53125,1.3125 -0.002,0.009 0.002,0.0222 0,0.0312 -0.13886,0.53656 -0.37321,0.90088 -0.53125,1.375 -0.12084,0.36253 -0.0667,0.92062 -0.0312,1.5 -0.82978,-0.25343 -1.38028,-0.92736 -1.59375,-1.78125 -0.12077,-0.48308 -0.14889,-0.98249 -0.0937,-1.40625 0.0551,-0.42376 0.22795,-0.7592 0.375,-0.90625 0.25392,-0.25393 0.46737,-0.33692 0.6875,-0.34375 z m -1.46875,0.5 c -0.0736,0.20494 -0.12483,0.41455 -0.15625,0.65625 0.0306,-0.2352 0.0872,-0.45489 0.15625,-0.65625 z m -32.5,0.0625 c -0.0276,0.1713 -0.0563,0.33943 -0.125,0.5 0.0687,-0.16057 0.0974,-0.3287 0.125,-0.5 z m 51.8125,2.65625 c 0.1315,-0.0187 0.26527,-0.0206 0.375,0 0.22818,0.0428 0.388,0.13246 0.53125,0.34375 0.13505,0.1992 0.2391,0.53433 0.25,0.96875 -0.42216,0.97295 -0.75208,1.56366 -1.3125,1.875 -0.4446,0.247 -1.39795,0.24898 -2.40625,0.21875 0.43539,-0.39097 0.927,-0.79841 1.09375,-1.1875 0.22422,-0.52318 0.21688,-1.03591 0.21875,-1.5625 0.39761,-0.37438 0.8555,-0.60025 1.25,-0.65625 z M 188.625,167.8125 c 0.1272,0.0123 0.25365,0.0488 0.375,0.0937 0.24271,0.0899 0.45186,0.22446 0.5625,0.4375 0.11064,0.21304 0.15958,0.49018 0.0312,0.875 a 0.29731207,0.29731207 0 0 0 -0.0312,0.0625 c -0.0537,0.40304 -0.18408,0.76554 -0.25,1.21875 -0.0456,0.31342 0.0737,0.72659 0.1875,1.125 -0.95773,-0.12321 -1.58946,-0.58421 -1.875,-1.21875 -0.327,-0.72667 -0.23994,-1.64109 0.0625,-2.125 0.1218,-0.22145 0.32279,-0.37421 0.5625,-0.4375 0.11986,-0.0317 0.2478,-0.0436 0.375,-0.0312 z m 12.46875,1.375 c -0.0278,0.16049 -0.0603,0.31758 -0.125,0.46875 0.0647,-0.15117 0.0972,-0.30826 0.125,-0.46875 z"
               transform="translate(52.03125,53.96875)"
               id="path8576"
               inkscape:connector-curvature="0" />
          </g>
        </g>
      </g>
    </g>
  </g>
</svg>
